Sample data/Release and Recapture/TEK0003.CSV

Record Length,2.500000e+03,,  17.200000000000,   0.25200,
Sample Interval,1.000000e-02,,  17.210000000000,   0.26400,
Trigger Point,-1.720000000000e+03,,  17.220000000000,   0.23800,
,,,  17.230000000000,   0.25000,
,,,  17.240000000000,   0.25200,
,,,  17.250000000000,   0.26000,
Source,CH1,,  17.260000000000,   0.26600,
Vertical Units,V,,  17.270000000000,   0.25400,
Vertical Scale,5.000000e-02,,  17.280000000000,   0.25200,
Vertical Offset,-1.600000e-01,,  17.290000000000,   0.24600,
Horizontal Units,s,,  17.300000000000,   0.25800,
Horizontal Scale,2.500000e+00,,  17.310000000000,   0.26000,
Pt Fmt,Y,,  17.320000000000,   0.24800,
Yzero,0.000000e+00,,  17.330000000000,   0.26200,
Probe Atten,1.000000e+00,,  17.340000000000,   0.24600,
Model Number,TDS2001C,,  17.350000000000,   0.23200,
Serial Number,C012118,,  17.360000000000,   0.24400,
Firmware Version,FV:v24.15,,  17.370000000000,   0.24600,
,,,17.380000000000,   0.24600,
,,,17.390000000000,   0.22800,
,,,17.400000000000,   0.22800,
,,,17.410000000000,   0.22800,
,,,17.420000000000,   0.25800,
,,,17.430000000000,   0.24200,
,,,17.440000000000,   0.24000,
,,,17.450000000000,   0.25600,
,,,17.460000000000,   0.25000,
,,,17.470000000000,   0.26600,
,,,17.480000000000,   0.25000,
,,,17.490000000000,   0.25600,
,,,17.500000000000,   0.26000,
,,,17.510000000000,   0.25200,
,,,17.520000000000,   0.25600,
,,,17.530000000000,   0.23400,
,,,17.540000000000,   0.25600,
,,,17.550000000000,   0.24200,
,,,17.560000000000,   0.25800,
,,,17.570000000000,   0.24800,
,,,17.580000000000,   0.22800,
,,,17.590000000000,   0.26000,
,,,17.600000000000,   0.23200,
,,,17.610000000000,   0.24000,
,,,17.620000000000,   0.25800,
,,,17.630000000000,   0.27200,
,,,17.640000000000,   0.26400,
,,,17.650000000000,   0.25800,
,,,17.660000000000,   0.24800,
,,,17.670000000000,   0.24000,
,,,17.680000000000,   0.26600,
,,,17.690000000000,   0.25000,
,,,17.700000000000,   0.26600,
,,,17.710000000000,   0.26400,
,,,17.720000000000,   0.25000,
,,,17.730000000000,   0.24000,
,,,17.740000000000,   0.26600,
,,,17.750000000000,   0.24600,
,,,17.760000000000,   0.24200,
,,,17.770000000000,   0.24000,
,,,17.780000000000,   0.23400,
,,,17.790000000000,   0.26200,
,,,17.800000000000,   0.26600,
,,,17.810000000000,   0.26200,
,,,17.820000000000,   0.23600,
,,,17.830000000000,   0.24000,
,,,17.840000000000,   0.24200,
,,,17.850000000000,   0.25000,
,,,17.860000000000,   0.26400,
,,,17.870000000000,   0.26200,
,,,17.880000000000,   0.27200,
,,,17.890000000000,   0.27000,
,,,17.900000000000,   0.25800,
,,,17.910000000000,   0.24200,
,,,17.920000000000,   0.23000,
,,,17.930000000000,   0.23200,
,,,17.940000000000,   0.24400,
,,,17.950000000000,   0.26800,
,,,17.960000000000,   0.26600,
,,,17.970000000000,   0.26000,
,,,17.980000000000,   0.24600,
,,,17.990000000000,   0.22800,
,,,18.000000000000,   0.23200,
,,,18.010000000000,   0.25200,
,,,18.020000000000,   0.25600,
,,,18.030000000000,   0.22600,
,,,18.040000000000,   0.23000,
,,,18.050000000000,   0.25400,
,,,18.060000000000,   0.24600,
,,,18.070000000000,   0.25000,
,,,18.080000000000,   0.22400,
,,,18.090000000000,   0.22800,
,,,18.100000000000,   0.24000,
,,,18.110000000000,   0.23200,
,,,18.120000000000,   0.23000,
,,,18.130000000000,   0.22200,
,,,18.140000000000,   0.24200,
,,,18.150000000000,   0.25200,
,,,18.160000000000,   0.22800,
,,,18.170000000000,   0.24800,
,,,18.180000000000,   0.24800,
,,,18.190000000000,   0.25800,
,,,18.200000000000,   0.25000,
,,,18.210000000000,   0.25200,
,,,18.220000000000,   0.23600,
,,,18.230000000000,   0.23600,
,,,18.240000000000,   0.25600,
,,,18.250000000000,   0.25000,
,,,18.260000000000,   0.24000,
,,,18.270000000000,   0.25000,
,,,18.280000000000,   0.26000,
,,,18.290000000000,   0.24000,
,,,18.300000000000,   0.23000,
,,,18.310000000000,   0.22400,
,,,18.320000000000,   0.24800,
,,,18.330000000000,   0.22000,
,,,18.340000000000,   0.22800,
,,,18.350000000000,   0.23600,
,,,18.360000000000,   0.26800,
,,,18.370000000000,   0.26600,
,,,18.380000000000,   0.25400,
,,,18.390000000000,   0.23800,
,,,18.400000000000,   0.23800,
,,,18.410000000000,   0.22800,
,,,18.420000000000,   0.24600,
,,,18.430000000000,   0.25800,
,,,18.440000000000,   0.25600,
,,,18.450000000000,   0.24000,
,,,18.460000000000,   0.22200,
,,,18.470000000000,   0.23600,
,,,18.480000000000,   0.25600,
,,,18.490000000000,   0.26600,
,,,18.500000000000,   0.23200,
,,,18.510000000000,   0.23600,
,,,18.520000000000,   0.23400,
,,,18.530000000000,   0.25400,
,,,18.540000000000,   0.26000,
,,,18.550000000000,   0.24000,
,,,18.560000000000,   0.22800,
,,,18.570000000000,   0.25000,
,,,18.580000000000,   0.24600,
,,,18.590000000000,   0.23400,
,,,18.600000000000,   0.23800,
,,,18.610000000000,   0.24600,
,,,18.620000000000,   0.25000,
,,,18.630000000000,   0.25200,
,,,18.640000000000,   0.25000,
,,,18.650000000000,   0.23200,
,,,18.660000000000,   0.26600,
,,,18.670000000000,   0.27000,
,,,18.680000000000,   0.25000,
,,,18.690000000000,   0.25400,
,,,18.700000000000,   0.26600,
,,,18.710000000000,   0.26000,
,,,18.720000000000,   0.27000,
,,,18.730000000000,   0.26000,
,,,18.740000000000,   0.24200,
,,,18.750000000000,   0.26600,
,,,18.760000000000,   0.27800,
,,,18.770000000000,   0.24800,
,,,18.780000000000,   0.24400,
,,,18.790000000000,   0.26200,
,,,18.800000000000,   0.26800,
,,,18.810000000000,   0.25200,
,,,18.820000000000,   0.22800,
,,,18.830000000000,   0.25600,
,,,18.840000000000,   0.24400,
,,,18.850000000000,   0.24600,
,,,18.860000000000,   0.24000,
,,,18.870000000000,   0.25600,
,,,18.880000000000,   0.24600,
,,,18.890000000000,   0.24200,
,,,18.900000000000,   0.23800,
,,,18.910000000000,   0.24600,
,,,18.920000000000,   0.25000,
,,,18.930000000000,   0.25200,
,,,18.940000000000,   0.24800,
,,,18.950000000000,   0.25000,
,,,18.960000000000,   0.26200,
,,,18.970000000000,   0.26200,
,,,18.980000000000,   0.25400,
,,,18.990000000000,   0.24600,
,,,19.000000000000,   0.24400,
,,,19.010000000000,   0.24600,
,,,19.020000000000,   0.26000,
,,,19.030000000000,   0.25000,
,,,19.040000000000,   0.25000,
,,,19.050000000000,   0.25200,
,,,19.060000000000,   0.26600,
,,,19.070000000000,   0.25000,
,,,19.080000000000,   0.25600,
,,,19.090000000000,   0.23400,
,,,19.100000000000,   0.25600,
,,,19.110000000000,   0.25200,
,,,19.120000000000,   0.25000,
,,,19.130000000000,   0.25000,
,,,19.140000000000,   0.25200,
,,,19.150000000000,   0.24400,
,,,19.160000000000,   0.25200,
,,,19.170000000000,   0.24600,
,,,19.180000000000,   0.24200,
,,,19.190000000000,   0.24400,
,,,19.200000000000,   0.24200,
,,,19.210000000000,   0.23600,
,,,19.220000000000,   0.25200,
,,,19.230000000000,   0.25000,
,,,19.240000000000,   0.25000,
,,,19.250000000000,   0.24600,
,,,19.260000000000,   0.24000,
,,,19.270000000000,   0.25600,
,,,19.280000000000,   0.25000,
,,,19.290000000000,   0.25000,
,,,19.300000000000,   0.24200,
,,,19.310000000000,   0.25400,
,,,19.320000000000,   0.26000,
,,,19.330000000000,   0.24600,
,,,19.340000000000,   0.24000,
,,,19.350000000000,   0.26200,
,,,19.360000000000,   0.25600,
,,,19.370000000000,   0.25800,
,,,19.380000000000,   0.26200,
,,,19.390000000000,   0.25400,
,,,19.400000000000,   0.25600,
,,,19.410000000000,   0.25800,
,,,19.420000000000,   0.25400,
,,,19.430000000000,   0.25200,
,,,19.440000000000,   0.26000,
,,,19.450000000000,   0.26000,
,,,19.460000000000,   0.24800,
,,,19.470000000000,   0.26000,
,,,19.480000000000,   0.25600,
,,,19.490000000000,   0.27200,
,,,19.500000000000,   0.27200,
,,,19.510000000000,   0.24000,
,,,19.520000000000,   0.26000,
,,,19.530000000000,   0.25800,
,,,19.540000000000,   0.25800,
,,,19.550000000000,   0.25600,
,,,19.560000000000,   0.25000,
,,,19.570000000000,   0.26400,
,,,19.580000000000,   0.26000,
,,,19.590000000000,   0.25800,
,,,19.600000000000,   0.27600,
,,,19.610000000000,   0.26400,
,,,19.620000000000,   0.28200,
,,,19.630000000000,   0.26000,
,,,19.640000000000,   0.26200,
,,,19.650000000000,   0.26000,
,,,19.660000000000,   0.26000,
,,,19.670000000000,   0.26400,
,,,19.680000000000,   0.26000,
,,,19.690000000000,   0.27200,
,,,19.700000000000,   0.26000,
,,,19.710000000000,   0.23800,
,,,19.720000000000,   0.23000,
,,,19.730000000000,   0.25400,
,,,19.740000000000,   0.26600,
,,,19.750000000000,   0.25800,
,,,19.760000000000,   0.24800,
,,,19.770000000000,   0.25000,
,,,19.780000000000,   0.24000,
,,,19.790000000000,   0.24800,
,,,19.800000000000,   0.25200,
,,,19.810000000000,   0.26400,
,,,19.820000000000,   0.25800,
,,,19.830000000000,   0.26200,
,,,19.840000000000,   0.24200,
,,,19.850000000000,   0.24600,
,,,19.860000000000,   0.23600,
,,,19.870000000000,   0.25600,
,,,19.880000000000,   0.24800,
,,,19.890000000000,   0.24200,
,,,19.900000000000,   0.23800,
,,,19.910000000000,   0.24600,
,,,19.920000000000,   0.25200,
,,,19.930000000000,   0.25200,
,,,19.940000000000,   0.24600,
,,,19.950000000000,   0.25000,
,,,19.960000000000,   0.25000,
,,,19.970000000000,   0.24800,
,,,19.980000000000,   0.25800,
,,,19.990000000000,   0.25800,
,,,20.000000000000,   0.25000,
,,,20.010000000000,   0.24800,
,,,20.020000000000,   0.25200,
,,,20.030000000000,   0.24600,
,,,20.040000000000,   0.25600,
,,,20.050000000000,   0.25000,
,,,20.060000000000,   0.25800,
,,,20.070000000000,   0.24400,
,,,20.080000000000,   0.25600,
,,,20.090000000000,   0.26800,
,,,20.100000000000,   0.25000,
,,,20.110000000000,   0.26200,
,,,20.120000000000,   0.24600,
,,,20.130000000000,   0.24600,
,,,20.140000000000,   0.25400,
,,,20.150000000000,   0.24600,
,,,20.160000000000,   0.24600,
,,,20.170000000000,   0.25000,
,,,20.180000000000,   0.24600,
,,,20.190000000000,   0.25000,
,,,20.200000000000,   0.24400,
,,,20.210000000000,   0.25200,
,,,20.220000000000,   0.25600,
,,,20.230000000000,   0.25000,
,,,20.240000000000,   0.25000,
,,,20.250000000000,   0.24800,
,,,20.260000000000,   0.24400,
,,,20.270000000000,   0.25200,
,,,20.280000000000,   0.25600,
,,,20.290000000000,   0.24200,
,,,20.300000000000,   0.25600,
,,,20.310000000000,   0.24400,
,,,20.320000000000,   0.25000,
,,,20.330000000000,   0.25200,
,,,20.340000000000,   0.25000,
,,,20.350000000000,   0.24600,
,,,20.360000000000,   0.25600,
,,,20.370000000000,   0.25000,
,,,20.380000000000,   0.26000,
,,,20.390000000000,   0.24600,
,,,20.400000000000,   0.24000,
,,,20.410000000000,   0.25600,
,,,20.420000000000,   0.24200,
,,,20.430000000000,   0.24800,
,,,20.440000000000,   0.26200,
,,,20.450000000000,   0.26400,
,,,20.460000000000,   0.27200,
,,,20.470000000000,   0.26200,
,,,20.480000000000,   0.26200,
,,,20.490000000000,   0.24400,
,,,20.500000000000,   0.25000,
,,,20.510000000000,   0.23600,
,,,20.520000000000,   0.23800,
,,,20.530000000000,   0.23600,
,,,20.540000000000,   0.24600,
,,,20.550000000000,   0.26200,
,,,20.560000000000,   0.25200,
,,,20.570000000000,   0.24200,
,,,20.580000000000,   0.26200,
,,,20.590000000000,   0.25400,
,,,20.600000000000,   0.28600,
,,,20.610000000000,   0.27800,
,,,20.620000000000,   0.25800,
,,,20.630000000000,   0.23800,
,,,20.640000000000,   0.24600,
,,,20.650000000000,   0.27200,
,,,20.660000000000,   0.25800,
,,,20.670000000000,   0.24800,
,,,20.680000000000,   0.24400,
,,,20.690000000000,   0.25600,
,,,20.700000000000,   0.27200,
,,,20.710000000000,   0.26800,
,,,20.720000000000,   0.26000,
,,,20.730000000000,   0.23400,
,,,20.740000000000,   0.24200,
,,,20.750000000000,   0.25200,
,,,20.760000000000,   0.25200,
,,,20.770000000000,   0.26000,
,,,20.780000000000,   0.25800,
,,,20.790000000000,   0.25200,
,,,20.800000000000,   0.26800,
,,,20.810000000000,   0.27800,
,,,20.820000000000,   0.25800,
,,,20.830000000000,   0.24600,
,,,20.840000000000,   0.23800,
,,,20.850000000000,   0.24000,
,,,20.860000000000,   0.24600,
,,,20.870000000000,   0.27200,
,,,20.880000000000,   0.24200,
,,,20.890000000000,   0.26600,
,,,20.900000000000,   0.26400,
,,,20.910000000000,   0.26200,
,,,20.920000000000,   0.25200,
,,,20.930000000000,   0.23800,
,,,20.940000000000,   0.23000,
,,,20.950000000000,   0.23400,
,,,20.960000000000,   0.24000,
,,,20.970000000000,   0.25000,
,,,20.980000000000,   0.26400,
,,,20.990000000000,   0.02400,
,,,21.000000000000,   0.01800,
,,,21.010000000000,   0.02200,
,,,21.020000000000,   0.02200,
,,,21.030000000000,   0.03000,
,,,21.040000000000,   0.07000,
,,,21.050000000000,   0.09400,
,,,21.060000000000,   0.10200,
,,,21.070000000000,   0.10000,
,,,21.080000000000,   0.09600,
,,,21.090000000000,   0.09600,
,,,21.100000000000,   0.09000,
,,,21.110000000000,   0.09600,
,,,21.120000000000,   0.09200,
,,,21.130000000000,   0.09800,
,,,21.140000000000,   0.10200,
,,,21.150000000000,   0.10600,
,,,21.160000000000,   0.09600,
,,,21.170000000000,   0.08800,
,,,21.180000000000,   0.10000,
,,,21.190000000000,   0.10200,
,,,21.200000000000,   0.09800,
,,,21.210000000000,   0.09400,
,,,21.220000000000,   0.10200,
,,,21.230000000000,   0.10000,
,,,21.240000000000,   0.10600,
,,,21.250000000000,   0.10600,
,,,21.260000000000,   0.10400,
,,,21.270000000000,   0.10200,
,,,21.280000000000,   0.10200,
,,,21.290000000000,   0.10400,
,,,21.300000000000,   0.09600,
,,,21.310000000000,   0.09800,
,,,21.320000000000,   0.10200,
,,,21.330000000000,   0.10200,
,,,21.340000000000,   0.10200,
,,,21.350000000000,   0.10200,
,,,21.360000000000,   0.10000,
,,,21.370000000000,   0.09400,
,,,21.380000000000,   0.10600,
,,,21.390000000000,   0.10000,
,,,21.400000000000,   0.10600,
,,,21.410000000000,   0.10000,
,,,21.420000000000,   0.09400,
,,,21.430000000000,   0.10200,
,,,21.440000000000,   0.10000,
,,,21.450000000000,   0.11200,
,,,21.460000000000,   0.10200,
,,,21.470000000000,   0.10000,
,,,21.480000000000,   0.10200,
,,,21.490000000000,   0.09800,
,,,21.500000000000,   0.10600,
,,,21.510000000000,   0.10800,
,,,21.520000000000,   0.10600,
,,,21.530000000000,   0.10200,
,,,21.540000000000,   0.10000,
,,,21.550000000000,   0.10600,
,,,21.560000000000,   0.10400,
,,,21.570000000000,   0.10600,
,,,21.580000000000,   0.11200,
,,,21.590000000000,   0.11800,
,,,21.600000000000,   0.10600,
,,,21.610000000000,   0.10800,
,,,21.620000000000,   0.11400,
,,,21.630000000000,   0.11000,
,,,21.640000000000,   0.10200,
,,,21.650000000000,   0.11600,
,,,21.660000000000,   0.11200,
,,,21.670000000000,   0.11200,
,,,21.680000000000,   0.10800,
,,,21.690000000000,   0.10600,
,,,21.700000000000,   0.10800,
,,,21.710000000000,   0.11400,
,,,21.720000000000,   0.10200,
,,,21.730000000000,   0.11600,
,,,21.740000000000,   0.11000,
,,,21.750000000000,   0.11400,
,,,21.760000000000,   0.11000,
,,,21.770000000000,   0.11000,
,,,21.780000000000,   0.11600,
,,,21.790000000000,   0.11400,
,,,21.800000000000,   0.11600,
,,,21.810000000000,   0.11600,
,,,21.820000000000,   0.11200,
,,,21.830000000000,   0.11600,
,,,21.840000000000,   0.11600,
,,,21.850000000000,   0.11600,
,,,21.860000000000,   0.11200,
,,,21.870000000000,   0.11400,
,,,21.880000000000,   0.11200,
,,,21.890000000000,   0.11200,
,,,21.900000000000,   0.11400,
,,,21.910000000000,   0.11400,
,,,21.920000000000,   0.11000,
,,,21.930000000000,   0.11200,
,,,21.940000000000,   0.11800,
,,,21.950000000000,   0.11800,
,,,21.960000000000,   0.11400,
,,,21.970000000000,   0.11600,
,,,21.980000000000,   0.11600,
,,,21.990000000000,   0.11200,
,,,22.000000000000,   0.11400,
,,,22.010000000000,   0.11600,
,,,22.020000000000,   0.11400,
,,,22.030000000000,   0.11600,
,,,22.040000000000,   0.11800,
,,,22.050000000000,   0.11800,
,,,22.060000000000,   0.11600,
,,,22.070000000000,   0.11600,
,,,22.080000000000,   0.11600,
,,,22.090000000000,   0.11200,
,,,22.100000000000,   0.11800,
,,,22.110000000000,   0.12000,
,,,22.120000000000,   0.12200,
,,,22.130000000000,   0.12600,
,,,22.140000000000,   0.11200,
,,,22.150000000000,   0.11600,
,,,22.160000000000,   0.12000,
,,,22.170000000000,   0.11600,
,,,22.180000000000,   0.12200,
,,,22.190000000000,   0.12200,
,,,22.200000000000,   0.11800,
,,,22.210000000000,   0.12200,
,,,22.220000000000,   0.12200,
,,,22.230000000000,   0.12200,
,,,22.240000000000,   0.12400,
,,,22.250000000000,   0.12400,
,,,22.260000000000,   0.12200,
,,,22.270000000000,   0.12200,
,,,22.280000000000,   0.12000,
,,,22.290000000000,   0.11600,
,,,22.300000000000,   0.11600,
,,,22.310000000000,   0.12200,
,,,22.320000000000,   0.11600,
,,,22.330000000000,   0.12000,
,,,22.340000000000,   0.12400,
,,,22.350000000000,   0.11400,
,,,22.360000000000,   0.12600,
,,,22.370000000000,   0.11600,
,,,22.380000000000,   0.12200,
,,,22.390000000000,   0.12200,
,,,22.400000000000,   0.12200,
,,,22.410000000000,   0.12800,
,,,22.420000000000,   0.12000,
,,,22.430000000000,   0.12400,
,,,22.440000000000,   0.12400,
,,,22.450000000000,   0.12600,
,,,22.460000000000,   0.12200,
,,,22.470000000000,   0.12600,
,,,22.480000000000,   0.12600,
,,,22.490000000000,   0.12600,
,,,22.500000000000,   0.12200,
,,,22.510000000000,   0.12400,
,,,22.520000000000,   0.12800,
,,,22.530000000000,   0.12800,
,,,22.540000000000,   0.12800,
,,,22.550000000000,   0.12600,
,,,22.560000000000,   0.12800,
,,,22.570000000000,   0.13200,
,,,22.580000000000,   0.12400,
,,,22.590000000000,   0.13600,
,,,22.600000000000,   0.13400,
,,,22.610000000000,   0.13200,
,,,22.620000000000,   0.13000,
,,,22.630000000000,   0.12400,
,,,22.640000000000,   0.13000,
,,,22.650000000000,   0.13200,
,,,22.660000000000,   0.13200,
,,,22.670000000000,   0.13000,
,,,22.680000000000,   0.13000,
,,,22.690000000000,   0.13600,
,,,22.700000000000,   0.12600,
,,,22.710000000000,   0.12600,
,,,22.720000000000,   0.13800,
,,,22.730000000000,   0.13400,
,,,22.740000000000,   0.13400,
,,,22.750000000000,   0.12400,
,,,22.760000000000,   0.12600,
,,,22.770000000000,   0.12600,
,,,22.780000000000,   0.13400,
,,,22.790000000000,   0.12200,
,,,22.800000000000,   0.12600,
,,,22.810000000000,   0.13400,
,,,22.820000000000,   0.13000,
,,,22.830000000000,   0.13400,
,,,22.840000000000,   0.14200,
,,,22.850000000000,   0.13800,
,,,22.860000000000,   0.13600,
,,,22.870000000000,   0.13400,
,,,22.880000000000,   0.13200,
,,,22.890000000000,   0.14200,
,,,22.900000000000,   0.13600,
,,,22.910000000000,   0.13600,
,,,22.920000000000,   0.13600,
,,,22.930000000000,   0.13600,
,,,22.940000000000,   0.14000,
,,,22.950000000000,   0.13400,
,,,22.960000000000,   0.13400,
,,,22.970000000000,   0.13800,
,,,22.980000000000,   0.13600,
,,,22.990000000000,   0.14200,
,,,23.000000000000,   0.13800,
,,,23.010000000000,   0.13600,
,,,23.020000000000,   0.13600,
,,,23.030000000000,   0.14000,
,,,23.040000000000,   0.13600,
,,,23.050000000000,   0.14200,
,,,23.060000000000,   0.14000,
,,,23.070000000000,   0.13800,
,,,23.080000000000,   0.14200,
,,,23.090000000000,   0.13400,
,,,23.100000000000,   0.14200,
,,,23.110000000000,   0.13600,
,,,23.120000000000,   0.13400,
,,,23.130000000000,   0.13200,
,,,23.140000000000,   0.14200,
,,,23.150000000000,   0.13400,
,,,23.160000000000,   0.13200,
,,,23.170000000000,   0.14200,
,,,23.180000000000,   0.14600,
,,,23.190000000000,   0.14600,
,,,23.200000000000,   0.14800,
,,,23.210000000000,   0.14800,
,,,23.220000000000,   0.15000,
,,,23.230000000000,   0.15200,
,,,23.240000000000,   0.15200,
,,,23.250000000000,   0.14800,
,,,23.260000000000,   0.15200,
,,,23.270000000000,   0.15200,
,,,23.280000000000,   0.14600,
,,,23.290000000000,   0.14600,
,,,23.300000000000,   0.15000,
,,,23.310000000000,   0.15600,
,,,23.320000000000,   0.14600,
,,,23.330000000000,   0.15200,
,,,23.340000000000,   0.15200,
,,,23.350000000000,   0.14200,
,,,23.360000000000,   0.14800,
,,,23.370000000000,   0.16000,
,,,23.380000000000,   0.16400,
,,,23.390000000000,   0.15400,
,,,23.400000000000,   0.14600,
,,,23.410000000000,   0.14000,
,,,23.420000000000,   0.14200,
,,,23.430000000000,   0.14600,
,,,23.440000000000,   0.15200,
,,,23.450000000000,   0.15200,
,,,23.460000000000,   0.15000,
,,,23.470000000000,   0.15600,
,,,23.480000000000,   0.15000,
,,,23.490000000000,   0.14400,
,,,23.500000000000,   0.13600,
,,,23.510000000000,   0.14400,
,,,23.520000000000,   0.14600,
