Sample data/Loading Time/TEK0015.CSV

Record Length,2.500000e+03,,   0.000000000000,   0.41400,
Sample Interval,1.000000e-02,,   0.010000000000,   0.41800,
Trigger Point,0.000000000000e+00,,   0.020000000000,   0.43200,
,,,   0.030000000000,   0.41800,
,,,   0.040000000000,   0.44600,
,,,   0.050000000000,   0.41400,
Source,CH1,,   0.060000000000,   0.41600,
Vertical Units,V,,   0.070000000000,   0.40400,
Vertical Scale,5.000000e-02,,   0.080000000000,   0.40200,
Vertical Offset,-4.040000e-01,,   0.090000000000,   0.42200,
Horizontal Units,s,,   0.100000000000,   0.41800,
Horizontal Scale,2.500000e+00,,   0.110000000000,   0.43600,
Pt Fmt,Y,,   0.120000000000,   0.43000,
Yzero,0.000000e+00,,   0.130000000000,   0.42800,
Probe Atten,1.000000e+01,,   0.140000000000,   0.44200,
Model Number,TDS2001C,,   0.150000000000,   0.41200,
Serial Number,C012118,,   0.160000000000,   0.41400,
Firmware Version,FV:v24.15,,   0.170000000000,   0.40600,
,,,0.180000000000,   0.40600,
,,,0.190000000000,   0.43200,
,,,0.200000000000,   0.45000,
,,,0.210000000000,   0.41600,
,,,0.220000000000,   0.43600,
,,,0.230000000000,   0.45800,
,,,0.240000000000,   0.42000,
,,,0.250000000000,   0.44200,
,,,0.260000000000,   0.41400,
,,,0.270000000000,   0.44600,
,,,0.280000000000,   0.44200,
,,,0.290000000000,   0.46400,
,,,0.300000000000,   0.44000,
,,,0.310000000000,   0.43400,
,,,0.320000000000,   0.42400,
,,,0.330000000000,   0.43800,
,,,0.340000000000,   0.39200,
,,,0.350000000000,   0.42800,
,,,0.360000000000,   0.41000,
,,,0.370000000000,   0.45600,
,,,0.380000000000,   0.40600,
,,,0.390000000000,   0.40200,
,,,0.400000000000,   0.42600,
,,,0.410000000000,   0.42200,
,,,0.420000000000,   0.42200,
,,,0.430000000000,   0.40600,
,,,0.440000000000,   0.43000,
,,,0.450000000000,   0.46200,
,,,0.460000000000,   0.40800,
,,,0.470000000000,   0.38800,
,,,0.480000000000,   0.41800,
,,,0.490000000000,   0.41600,
,,,0.500000000000,   0.43800,
,,,0.510000000000,   0.41400,
,,,0.520000000000,   0.43400,
,,,0.530000000000,   0.40800,
,,,0.540000000000,   0.41200,
,,,0.550000000000,   0.40600,
,,,0.560000000000,   0.43600,
,,,0.570000000000,   0.42000,
,,,0.580000000000,   0.42400,
,,,0.590000000000,   0.43400,
,,,0.600000000000,   0.43000,
,,,0.610000000000,   0.43400,
,,,0.620000000000,   0.43600,
,,,0.630000000000,   0.41200,
,,,0.640000000000,   0.42600,
,,,0.650000000000,   0.45000,
,,,0.660000000000,   0.41800,
,,,0.670000000000,   0.40800,
,,,0.680000000000,   0.40400,
,,,0.690000000000,   0.44400,
,,,0.700000000000,   0.39000,
,,,0.710000000000,   0.41400,
,,,0.720000000000,   0.42200,
,,,0.730000000000,   0.40200,
,,,0.740000000000,   0.43400,
,,,0.750000000000,   0.43600,
,,,0.760000000000,   0.42200,
,,,0.770000000000,   0.44200,
,,,0.780000000000,   0.40400,
,,,0.790000000000,   0.44200,
,,,0.800000000000,   0.42400,
,,,0.810000000000,   0.42200,
,,,0.820000000000,   0.41600,
,,,0.830000000000,   0.39600,
,,,0.840000000000,   0.41000,
,,,0.850000000000,   0.43200,
,,,0.860000000000,   0.41200,
,,,0.870000000000,   0.42000,
,,,0.880000000000,   0.42600,
,,,0.890000000000,   0.41400,
,,,0.900000000000,   0.42200,
,,,0.910000000000,   0.41800,
,,,0.920000000000,   0.39600,
,,,0.930000000000,   0.42400,
,,,0.940000000000,   0.41800,
,,,0.950000000000,   0.41200,
,,,0.960000000000,   0.42600,
,,,0.970000000000,   0.44200,
,,,0.980000000000,   0.41800,
,,,0.990000000000,   0.41000,
,,,1.000000000000,   0.39400,
,,,1.010000000000,   0.41800,
,,,1.020000000000,   0.41000,
,,,1.030000000000,   0.41000,
,,,1.040000000000,   0.39000,
,,,1.050000000000,   0.38600,
,,,1.060000000000,   0.44200,
,,,1.070000000000,   0.42600,
,,,1.080000000000,   0.40800,
,,,1.090000000000,   0.41600,
,,,1.100000000000,   0.41200,
,,,1.110000000000,   0.42400,
,,,1.120000000000,   0.41800,
,,,1.130000000000,   0.39400,
,,,1.140000000000,   0.38200,
,,,1.150000000000,   0.41000,
,,,1.160000000000,   0.41800,
,,,1.170000000000,   0.42000,
,,,1.180000000000,   0.42800,
,,,1.190000000000,   0.40600,
,,,1.200000000000,   0.42800,
,,,1.210000000000,   0.40800,
,,,1.220000000000,   0.41000,
,,,1.230000000000,   0.41000,
,,,1.240000000000,   0.41600,
,,,1.250000000000,   0.42400,
,,,1.260000000000,   0.40400,
,,,1.270000000000,   0.42200,
,,,1.280000000000,   0.41000,
,,,1.290000000000,   0.40600,
,,,1.300000000000,   0.42200,
,,,1.310000000000,   0.43000,
,,,1.320000000000,   0.41800,
,,,1.330000000000,   0.40400,
,,,1.340000000000,   0.41000,
,,,1.350000000000,   0.45200,
,,,1.360000000000,   0.41800,
,,,1.370000000000,   0.44200,
,,,1.380000000000,   0.40600,
,,,1.390000000000,   0.42200,
,,,1.400000000000,   0.42800,
,,,1.410000000000,   0.39400,
,,,1.420000000000,   0.43200,
,,,1.430000000000,   0.38600,
,,,1.440000000000,   0.43000,
,,,1.450000000000,   0.42400,
,,,1.460000000000,   0.40800,
,,,1.470000000000,   0.41800,
,,,1.480000000000,   0.40000,
,,,1.490000000000,   0.42000,
,,,1.500000000000,   0.42200,
,,,1.510000000000,   0.42800,
,,,1.520000000000,   0.44000,
,,,1.530000000000,   0.43600,
,,,1.540000000000,   0.40000,
,,,1.550000000000,   0.42600,
,,,1.560000000000,   0.40000,
,,,1.570000000000,   0.41600,
,,,1.580000000000,   0.45000,
,,,1.590000000000,   0.40600,
,,,1.600000000000,   0.41600,
,,,1.610000000000,   0.46000,
,,,1.620000000000,   0.40400,
,,,1.630000000000,   0.43400,
,,,1.640000000000,   0.41400,
,,,1.650000000000,   0.42200,
,,,1.660000000000,   0.43600,
,,,1.670000000000,   0.44800,
,,,1.680000000000,   0.40400,
,,,1.690000000000,   0.38800,
,,,1.700000000000,   0.43200,
,,,1.710000000000,   0.42400,
,,,1.720000000000,   0.42000,
,,,1.730000000000,   0.43800,
,,,1.740000000000,   0.40800,
,,,1.750000000000,   0.46600,
,,,1.760000000000,   0.41000,
,,,1.770000000000,   0.43000,
,,,1.780000000000,   0.41200,
,,,1.790000000000,   0.43200,
,,,1.800000000000,   0.39400,
,,,1.810000000000,   0.41600,
,,,1.820000000000,   0.41600,
,,,1.830000000000,   0.45400,
,,,1.840000000000,   0.40400,
,,,1.850000000000,   0.40200,
,,,1.860000000000,   0.43600,
,,,1.870000000000,   0.42600,
,,,1.880000000000,   0.42600,
,,,1.890000000000,   0.39400,
,,,1.900000000000,   0.40800,
,,,1.910000000000,   0.43000,
,,,1.920000000000,   0.44200,
,,,1.930000000000,   0.44000,
,,,1.940000000000,   0.41600,
,,,1.950000000000,   0.43200,
,,,1.960000000000,   0.40800,
,,,1.970000000000,   0.43000,
,,,1.980000000000,   0.41200,
,,,1.990000000000,   0.40800,
,,,2.000000000000,   0.40400,
,,,2.010000000000,   0.45000,
,,,2.020000000000,   0.44200,
,,,2.030000000000,   0.43000,
,,,2.040000000000,   0.41600,
,,,2.050000000000,   0.41400,
,,,2.060000000000,   0.43400,
,,,2.070000000000,   0.41600,
,,,2.080000000000,   0.44000,
,,,2.090000000000,   0.39800,
,,,2.100000000000,   0.42200,
,,,2.110000000000,   0.42200,
,,,2.120000000000,   0.41200,
,,,2.130000000000,   0.40400,
,,,2.140000000000,   0.39600,
,,,2.150000000000,   0.42000,
,,,2.160000000000,   0.44800,
,,,2.170000000000,   0.44200,
,,,2.180000000000,   0.41800,
,,,2.190000000000,   0.43600,
,,,2.200000000000,   0.41200,
,,,2.210000000000,   0.45000,
,,,2.220000000000,   0.44400,
,,,2.230000000000,   0.43400,
,,,2.240000000000,   0.42400,
,,,2.250000000000,   0.41000,
,,,2.260000000000,   0.39400,
,,,2.270000000000,   0.43000,
,,,2.280000000000,   0.42000,
,,,2.290000000000,   0.44400,
,,,2.300000000000,   0.41000,
,,,2.310000000000,   0.43600,
,,,2.320000000000,   0.42600,
,,,2.330000000000,   0.43200,
,,,2.340000000000,   0.43200,
,,,2.350000000000,   0.44000,
,,,2.360000000000,   0.41800,
,,,2.370000000000,   0.39600,
,,,2.380000000000,   0.42600,
,,,2.390000000000,   0.45000,
,,,2.400000000000,   0.40600,
,,,2.410000000000,   0.42800,
,,,2.420000000000,   0.43400,
,,,2.430000000000,   0.41800,
,,,2.440000000000,   0.42600,
,,,2.450000000000,   0.42600,
,,,2.460000000000,   0.47400,
,,,2.470000000000,   0.42400,
,,,2.480000000000,   0.45200,
,,,2.490000000000,   0.43400,
,,,2.500000000000,   0.40000,
,,,2.510000000000,   0.42000,
,,,2.520000000000,   0.43600,
,,,2.530000000000,   0.41400,
,,,2.540000000000,   0.43400,
,,,2.550000000000,   0.48600,
,,,2.560000000000,   0.47400,
,,,2.570000000000,   0.48000,
,,,2.580000000000,   0.45400,
,,,2.590000000000,   0.41600,
,,,2.600000000000,   0.43000,
,,,2.610000000000,   0.38000,
,,,2.620000000000,   0.37800,
,,,2.630000000000,   0.37600,
,,,2.640000000000,   0.36600,
,,,2.650000000000,   0.32200,
,,,2.660000000000,   0.32000,
,,,2.670000000000,   0.31200,
,,,2.680000000000,   0.31400,
,,,2.690000000000,   0.31400,
,,,2.700000000000,   0.30000,
,,,2.710000000000,   0.30600,
,,,2.720000000000,   0.30400,
,,,2.730000000000,   0.29200,
,,,2.740000000000,   0.30000,
,,,2.750000000000,   0.28800,
,,,2.760000000000,   0.29400,
,,,2.770000000000,   0.27800,
,,,2.780000000000,   0.26600,
,,,2.790000000000,   0.30200,
,,,2.800000000000,   0.30800,
,,,2.810000000000,   0.27000,
,,,2.820000000000,   0.25400,
,,,2.830000000000,   0.30400,
,,,2.840000000000,   0.27800,
,,,2.850000000000,   0.28200,
,,,2.860000000000,   0.29400,
,,,2.870000000000,   0.27200,
,,,2.880000000000,   0.25400,
,,,2.890000000000,   0.28200,
,,,2.900000000000,   0.27800,
,,,2.910000000000,   0.27600,
,,,2.920000000000,   0.29400,
,,,2.930000000000,   0.27600,
,,,2.940000000000,   0.28400,
,,,2.950000000000,   0.27200,
,,,2.960000000000,   0.28800,
,,,2.970000000000,   0.27800,
,,,2.980000000000,   0.29800,
,,,2.990000000000,   0.25800,
,,,3.000000000000,   0.27800,
,,,3.010000000000,   0.26600,
,,,3.020000000000,   0.27200,
,,,3.030000000000,   0.26000,
,,,3.040000000000,   0.27000,
,,,3.050000000000,   0.31800,
,,,3.060000000000,   0.26800,
,,,3.070000000000,   0.28400,
,,,3.080000000000,   0.27600,
,,,3.090000000000,   0.26800,
,,,3.100000000000,   0.26600,
,,,3.110000000000,   0.29200,
,,,3.120000000000,   0.28400,
,,,3.130000000000,   0.27800,
,,,3.140000000000,   0.28400,
,,,3.150000000000,   0.28400,
,,,3.160000000000,   0.25000,
,,,3.170000000000,   0.28200,
,,,3.180000000000,   0.26600,
,,,3.190000000000,   0.28800,
,,,3.200000000000,   0.27200,
,,,3.210000000000,   0.27000,
,,,3.220000000000,   0.28400,
,,,3.230000000000,   0.26400,
,,,3.240000000000,   0.30400,
,,,3.250000000000,   0.25400,
,,,3.260000000000,   0.25400,
,,,3.270000000000,   0.27000,
,,,3.280000000000,   0.25400,
,,,3.290000000000,   0.26600,
,,,3.300000000000,   0.25400,
,,,3.310000000000,   0.28800,
,,,3.320000000000,   0.27200,
,,,3.330000000000,   0.29400,
,,,3.340000000000,   0.25400,
,,,3.350000000000,   0.27000,
,,,3.360000000000,   0.29400,
,,,3.370000000000,   0.27400,
,,,3.380000000000,   0.28000,
,,,3.390000000000,   0.25800,
,,,3.400000000000,   0.28600,
,,,3.410000000000,   0.26000,
,,,3.420000000000,   0.27600,
,,,3.430000000000,   0.26200,
,,,3.440000000000,   0.28200,
,,,3.450000000000,   0.26200,
,,,3.460000000000,   0.24600,
,,,3.470000000000,   0.25400,
,,,3.480000000000,   0.28200,
,,,3.490000000000,   0.28800,
,,,3.500000000000,   0.29000,
,,,3.510000000000,   0.28000,
,,,3.520000000000,   0.27000,
,,,3.530000000000,   0.26600,
,,,3.540000000000,   0.25400,
,,,3.550000000000,   0.29400,
,,,3.560000000000,   0.26000,
,,,3.570000000000,   0.28000,
,,,3.580000000000,   0.27200,
,,,3.590000000000,   0.26400,
,,,3.600000000000,   0.30000,
,,,3.610000000000,   0.28800,
,,,3.620000000000,   0.29200,
,,,3.630000000000,   0.28800,
,,,3.640000000000,   0.30200,
,,,3.650000000000,   0.29200,
,,,3.660000000000,   0.27000,
,,,3.670000000000,   0.26000,
,,,3.680000000000,   0.27200,
,,,3.690000000000,   0.27800,
,,,3.700000000000,   0.26600,
,,,3.710000000000,   0.27200,
,,,3.720000000000,   0.29000,
,,,3.730000000000,   0.27000,
,,,3.740000000000,   0.26000,
,,,3.750000000000,   0.27000,
,,,3.760000000000,   0.26000,
,,,3.770000000000,   0.26000,
,,,3.780000000000,   0.26200,
,,,3.790000000000,   0.29400,
,,,3.800000000000,   0.27400,
,,,3.810000000000,   0.29200,
,,,3.820000000000,   0.28600,
,,,3.830000000000,   0.27200,
,,,3.840000000000,   0.29200,
,,,3.850000000000,   0.26600,
,,,3.860000000000,   0.27800,
,,,3.870000000000,   0.27000,
,,,3.880000000000,   0.28000,
,,,3.890000000000,   0.29400,
,,,3.900000000000,   0.27400,
,,,3.910000000000,   0.26200,
,,,3.920000000000,   0.27600,
,,,3.930000000000,   0.26200,
,,,3.940000000000,   0.28600,
,,,3.950000000000,   0.27200,
,,,3.960000000000,   0.27400,
,,,3.970000000000,   0.28200,
,,,3.980000000000,   0.29400,
,,,3.990000000000,   0.29000,
,,,4.000000000000,   0.26600,
,,,4.010000000000,   0.26600,
,,,4.020000000000,   0.30000,
,,,4.030000000000,   0.27200,
,,,4.040000000000,   0.28800,
,,,4.050000000000,   0.26200,
,,,4.060000000000,   0.26200,
,,,4.070000000000,   0.24000,
,,,4.080000000000,   0.30000,
,,,4.090000000000,   0.25200,
,,,4.100000000000,   0.26200,
,,,4.110000000000,   0.26800,
,,,4.120000000000,   0.26000,
,,,4.130000000000,   0.27800,
,,,4.140000000000,   0.27400,
,,,4.150000000000,   0.28000,
,,,4.160000000000,   0.27200,
,,,4.170000000000,   0.30400,
,,,4.180000000000,   0.25000,
,,,4.190000000000,   0.28000,
,,,4.200000000000,   0.24400,
,,,4.210000000000,   0.26400,
,,,4.220000000000,   0.27400,
,,,4.230000000000,   0.29400,
,,,4.240000000000,   0.29000,
,,,4.250000000000,   0.27000,
,,,4.260000000000,   0.24800,
,,,4.270000000000,   0.30200,
,,,4.280000000000,   0.27200,
,,,4.290000000000,   0.25000,
,,,4.300000000000,   0.27600,
,,,4.310000000000,   0.29200,
,,,4.320000000000,   0.30000,
,,,4.330000000000,   0.29200,
,,,4.340000000000,   0.24800,
,,,4.350000000000,   0.26000,
,,,4.360000000000,   0.26400,
,,,4.370000000000,   0.28000,
,,,4.380000000000,   0.30600,
,,,4.390000000000,   0.25600,
,,,4.400000000000,   0.29200,
,,,4.410000000000,   0.24800,
,,,4.420000000000,   0.29000,
,,,4.430000000000,   0.27800,
,,,4.440000000000,   0.27600,
,,,4.450000000000,   0.29400,
,,,4.460000000000,   0.23800,
,,,4.470000000000,   0.32400,
,,,4.480000000000,   0.28200,
,,,4.490000000000,   0.28200,
,,,4.500000000000,   0.28200,
,,,4.510000000000,   0.27200,
,,,4.520000000000,   0.27400,
,,,4.530000000000,   0.28200,
,,,4.540000000000,   0.31200,
,,,4.550000000000,   0.26800,
,,,4.560000000000,   0.26800,
,,,4.570000000000,   0.26000,
,,,4.580000000000,   0.26600,
,,,4.590000000000,   0.27800,
,,,4.600000000000,   0.27800,
,,,4.610000000000,   0.30600,
,,,4.620000000000,   0.28200,
,,,4.630000000000,   0.25800,
,,,4.640000000000,   0.29400,
,,,4.650000000000,   0.26800,
,,,4.660000000000,   0.26800,
,,,4.670000000000,   0.27600,
,,,4.680000000000,   0.26000,
,,,4.690000000000,   0.28400,
,,,4.700000000000,   0.31600,
,,,4.710000000000,   0.31400,
,,,4.720000000000,   0.26800,
,,,4.730000000000,   0.29200,
,,,4.740000000000,   0.28800,
,,,4.750000000000,   0.26200,
,,,4.760000000000,   0.25600,
,,,4.770000000000,   0.28200,
,,,4.780000000000,   0.30200,
,,,4.790000000000,   0.30600,
,,,4.800000000000,   0.26600,
,,,4.810000000000,   0.28000,
,,,4.820000000000,   0.26800,
,,,4.830000000000,   0.26200,
,,,4.840000000000,   0.27400,
,,,4.850000000000,   0.29200,
,,,4.860000000000,   0.25600,
,,,4.870000000000,   0.26200,
,,,4.880000000000,   0.27200,
,,,4.890000000000,   0.29000,
,,,4.900000000000,   0.26800,
,,,4.910000000000,   0.29600,
,,,4.920000000000,   0.28200,
,,,4.930000000000,   0.26000,
,,,4.940000000000,   0.26800,
,,,4.950000000000,   0.26600,
,,,4.960000000000,   0.26800,
,,,4.970000000000,   0.28000,
,,,4.980000000000,   0.26600,
,,,4.990000000000,   0.27600,
,,,5.000000000000,   0.26200,
,,,5.010000000000,   0.28800,
,,,5.020000000000,   0.27400,
,,,5.030000000000,   0.26600,
,,,5.040000000000,   0.28600,
,,,5.050000000000,   0.28400,
,,,5.060000000000,   0.28000,
,,,5.070000000000,   0.25000,
,,,5.080000000000,   0.28800,
,,,5.090000000000,   0.26600,
,,,5.100000000000,   0.31200,
,,,5.110000000000,   0.29200,
,,,5.120000000000,   0.28800,
,,,5.130000000000,   0.31400,
,,,5.140000000000,   0.25800,
,,,5.150000000000,   0.29200,
,,,5.160000000000,   0.29000,
,,,5.170000000000,   0.29800,
,,,5.180000000000,   0.29200,
,,,5.190000000000,   0.33800,
,,,5.200000000000,   0.32000,
,,,5.210000000000,   0.33600,
,,,5.220000000000,   0.31600,
,,,5.230000000000,   0.29800,
,,,5.240000000000,   0.31600,
,,,5.250000000000,   0.31000,
,,,5.260000000000,   0.32400,
,,,5.270000000000,   0.29800,
,,,5.280000000000,   0.35400,
,,,5.290000000000,   0.31000,
,,,5.300000000000,   0.32600,
,,,5.310000000000,   0.31200,
,,,5.320000000000,   0.31000,
,,,5.330000000000,   0.33000,
,,,5.340000000000,   0.34800,
,,,5.350000000000,   0.33000,
,,,5.360000000000,   0.33200,
,,,5.370000000000,   0.32200,
,,,5.380000000000,   0.33400,
,,,5.390000000000,   0.33600,
,,,5.400000000000,   0.33200,
,,,5.410000000000,   0.32000,
,,,5.420000000000,   0.33600,
,,,5.430000000000,   0.33400,
,,,5.440000000000,   0.28200,
,,,5.450000000000,   0.36200,
,,,5.460000000000,   0.33400,
,,,5.470000000000,   0.32400,
,,,5.480000000000,   0.35400,
,,,5.490000000000,   0.32400,
,,,5.500000000000,   0.34400,
,,,5.510000000000,   0.32400,
,,,5.520000000000,   0.33800,
,,,5.530000000000,   0.30000,
,,,5.540000000000,   0.32600,
,,,5.550000000000,   0.32600,
,,,5.560000000000,   0.31200,
,,,5.570000000000,   0.31600,
,,,5.580000000000,   0.31400,
,,,5.590000000000,   0.33400,
,,,5.600000000000,   0.33800,
,,,5.610000000000,   0.33600,
,,,5.620000000000,   0.32400,
,,,5.630000000000,   0.34200,
,,,5.640000000000,   0.31800,
,,,5.650000000000,   0.33800,
,,,5.660000000000,   0.30800,
,,,5.670000000000,   0.30400,
,,,5.680000000000,   0.35200,
,,,5.690000000000,   0.33400,
,,,5.700000000000,   0.34800,
,,,5.710000000000,   0.34200,
,,,5.720000000000,   0.37400,
,,,5.730000000000,   0.37000,
,,,5.740000000000,   0.35400,
,,,5.750000000000,   0.35200,
,,,5.760000000000,   0.35000,
,,,5.770000000000,   0.33400,
,,,5.780000000000,   0.34200,
,,,5.790000000000,   0.37000,
,,,5.800000000000,   0.34400,
,,,5.810000000000,   0.34200,
,,,5.820000000000,   0.37000,
,,,5.830000000000,   0.35400,
,,,5.840000000000,   0.33600,
,,,5.850000000000,   0.36000,
,,,5.860000000000,   0.33600,
,,,5.870000000000,   0.34400,
,,,5.880000000000,   0.34800,
,,,5.890000000000,   0.34200,
,,,5.900000000000,   0.33000,
,,,5.910000000000,   0.32000,
,,,5.920000000000,   0.32000,
,,,5.930000000000,   0.35400,
,,,5.940000000000,   0.34200,
,,,5.950000000000,   0.31800,
,,,5.960000000000,   0.35200,
,,,5.970000000000,   0.32400,
,,,5.980000000000,   0.31800,
,,,5.990000000000,   0.34800,
,,,6.000000000000,   0.31800,
,,,6.010000000000,   0.35600,
,,,6.020000000000,   0.36200,
,,,6.030000000000,   0.35800,
,,,6.040000000000,   0.36200,
,,,6.050000000000,   0.35600,
,,,6.060000000000,   0.34600,
,,,6.070000000000,   0.35600,
,,,6.080000000000,   0.35400,
,,,6.090000000000,   0.33600,
,,,6.100000000000,   0.36400,
,,,6.110000000000,   0.36600,
,,,6.120000000000,   0.35000,
,,,6.130000000000,   0.36600,
,,,6.140000000000,   0.34000,
,,,6.150000000000,   0.35600,
,,,6.160000000000,   0.35600,
,,,6.170000000000,   0.35400,
,,,6.180000000000,   0.37600,
,,,6.190000000000,   0.36800,
,,,6.200000000000,   0.34200,
,,,6.210000000000,   0.36800,
,,,6.220000000000,   0.36400,
,,,6.230000000000,   0.38200,
,,,6.240000000000,   0.35400,
,,,6.250000000000,   0.37000,
,,,6.260000000000,   0.34000,
,,,6.270000000000,   0.35400,
,,,6.280000000000,   0.34800,
,,,6.290000000000,   0.37800,
,,,6.300000000000,   0.35600,
,,,6.310000000000,   0.34200,
,,,6.320000000000,   0.35400,
,,,6.330000000000,   0.39600,
,,,6.340000000000,   0.35400,
,,,6.350000000000,   0.38000,
,,,6.360000000000,   0.39000,
,,,6.370000000000,   0.37800,
,,,6.380000000000,   0.36400,
,,,6.390000000000,   0.38000,
,,,6.400000000000,   0.33000,
,,,6.410000000000,   0.40000,
,,,6.420000000000,   0.37400,
,,,6.430000000000,   0.33000,
,,,6.440000000000,   0.36600,
,,,6.450000000000,   0.37000,
,,,6.460000000000,   0.32600,
,,,6.470000000000,   0.38000,
,,,6.480000000000,   0.40400,
,,,6.490000000000,   0.38200,
,,,6.500000000000,   0.41600,
,,,6.510000000000,   0.32800,
,,,6.520000000000,   0.37000,
,,,6.530000000000,   0.36200,
