Sample data/Loading Time/TEK0016.CSV

Record Length,2.500000e+03,,   0.000000000000,   0.39000,
Sample Interval,1.000000e-02,,   0.010000000000,   0.38800,
Trigger Point,0.000000000000e+00,,   0.020000000000,   0.39400,
,,,   0.030000000000,   0.38800,
,,,   0.040000000000,   0.37200,
,,,   0.050000000000,   0.36400,
Source,CH1,,   0.060000000000,   0.36200,
Vertical Units,V,,   0.070000000000,   0.38400,
Vertical Scale,5.000000e-02,,   0.080000000000,   0.39200,
Vertical Offset,-3.100000e-01,,   0.090000000000,   0.40800,
Horizontal Units,s,,   0.100000000000,   0.34800,
Horizontal Scale,2.500000e+00,,   0.110000000000,   0.38000,
Pt Fmt,Y,,   0.120000000000,   0.37200,
Yzero,0.000000e+00,,   0.130000000000,   0.35400,
Probe Atten,1.000000e+01,,   0.140000000000,   0.37000,
Model Number,TDS2001C,,   0.150000000000,   0.38200,
Serial Number,C012118,,   0.160000000000,   0.36200,
Firmware Version,FV:v24.15,,   0.170000000000,   0.38800,
,,,0.180000000000,   0.39000,
,,,0.190000000000,   0.38600,
,,,0.200000000000,   0.36400,
,,,0.210000000000,   0.36000,
,,,0.220000000000,   0.36800,
,,,0.230000000000,   0.35000,
,,,0.240000000000,   0.38600,
,,,0.250000000000,   0.38400,
,,,0.260000000000,   0.40000,
,,,0.270000000000,   0.40200,
,,,0.280000000000,   0.39200,
,,,0.290000000000,   0.32000,
,,,0.300000000000,   0.37400,
,,,0.310000000000,   0.37000,
,,,0.320000000000,   0.36400,
,,,0.330000000000,   0.37000,
,,,0.340000000000,   0.36000,
,,,0.350000000000,   0.39600,
,,,0.360000000000,   0.37400,
,,,0.370000000000,   0.39200,
,,,0.380000000000,   0.38800,
,,,0.390000000000,   0.40800,
,,,0.400000000000,   0.36600,
,,,0.410000000000,   0.42200,
,,,0.420000000000,   0.38600,
,,,0.430000000000,   0.39000,
,,,0.440000000000,   0.36000,
,,,0.450000000000,   0.36000,
,,,0.460000000000,   0.38400,
,,,0.470000000000,   0.38400,
,,,0.480000000000,   0.37000,
,,,0.490000000000,   0.36200,
,,,0.500000000000,   0.34200,
,,,0.510000000000,   0.38200,
,,,0.520000000000,   0.35800,
,,,0.530000000000,   0.35800,
,,,0.540000000000,   0.36600,
,,,0.550000000000,   0.37800,
,,,0.560000000000,   0.38600,
,,,0.570000000000,   0.36400,
,,,0.580000000000,   0.39400,
,,,0.590000000000,   0.36200,
,,,0.600000000000,   0.38200,
,,,0.610000000000,   0.39400,
,,,0.620000000000,   0.36600,
,,,0.630000000000,   0.36600,
,,,0.640000000000,   0.38400,
,,,0.650000000000,   0.36600,
,,,0.660000000000,   0.38400,
,,,0.670000000000,   0.38200,
,,,0.680000000000,   0.36400,
,,,0.690000000000,   0.38000,
,,,0.700000000000,   0.35600,
,,,0.710000000000,   0.36200,
,,,0.720000000000,   0.35200,
,,,0.730000000000,   0.38800,
,,,0.740000000000,   0.39400,
,,,0.750000000000,   0.34200,
,,,0.760000000000,   0.37400,
,,,0.770000000000,   0.36400,
,,,0.780000000000,   0.35800,
,,,0.790000000000,   0.37600,
,,,0.800000000000,   0.36400,
,,,0.810000000000,   0.39000,
,,,0.820000000000,   0.39400,
,,,0.830000000000,   0.35400,
,,,0.840000000000,   0.39200,
,,,0.850000000000,   0.34800,
,,,0.860000000000,   0.38800,
,,,0.870000000000,   0.35800,
,,,0.880000000000,   0.37600,
,,,0.890000000000,   0.37600,
,,,0.900000000000,   0.33800,
,,,0.910000000000,   0.39400,
,,,0.920000000000,   0.38600,
,,,0.930000000000,   0.38000,
,,,0.940000000000,   0.37600,
,,,0.950000000000,   0.34400,
,,,0.960000000000,   0.33600,
,,,0.970000000000,   0.36400,
,,,0.980000000000,   0.35400,
,,,0.990000000000,   0.36800,
,,,1.000000000000,   0.36800,
,,,1.010000000000,   0.35400,
,,,1.020000000000,   0.39000,
,,,1.030000000000,   0.35400,
,,,1.040000000000,   0.40400,
,,,1.050000000000,   0.37600,
,,,1.060000000000,   0.40600,
,,,1.070000000000,   0.36600,
,,,1.080000000000,   0.40000,
,,,1.090000000000,   0.38400,
,,,1.100000000000,   0.36000,
,,,1.110000000000,   0.40600,
,,,1.120000000000,   0.35800,
,,,1.130000000000,   0.36800,
,,,1.140000000000,   0.39400,
,,,1.150000000000,   0.37800,
,,,1.160000000000,   0.38200,
,,,1.170000000000,   0.40200,
,,,1.180000000000,   0.36800,
,,,1.190000000000,   0.39400,
,,,1.200000000000,   0.36000,
,,,1.210000000000,   0.38600,
,,,1.220000000000,   0.40400,
,,,1.230000000000,   0.38800,
,,,1.240000000000,   0.38000,
,,,1.250000000000,   0.36800,
,,,1.260000000000,   0.36400,
,,,1.270000000000,   0.38400,
,,,1.280000000000,   0.39400,
,,,1.290000000000,   0.38200,
,,,1.300000000000,   0.40600,
,,,1.310000000000,   0.37600,
,,,1.320000000000,   0.38400,
,,,1.330000000000,   0.38600,
,,,1.340000000000,   0.35800,
,,,1.350000000000,   0.37200,
,,,1.360000000000,   0.38800,
,,,1.370000000000,   0.37400,
,,,1.380000000000,   0.33600,
,,,1.390000000000,   0.37200,
,,,1.400000000000,   0.38400,
,,,1.410000000000,   0.34800,
,,,1.420000000000,   0.34600,
,,,1.430000000000,   0.39000,
,,,1.440000000000,   0.37200,
,,,1.450000000000,   0.36200,
,,,1.460000000000,   0.37000,
,,,1.470000000000,   0.37600,
,,,1.480000000000,   0.36200,
,,,1.490000000000,   0.38800,
,,,1.500000000000,   0.38200,
,,,1.510000000000,   0.34200,
,,,1.520000000000,   0.36800,
,,,1.530000000000,   0.37600,
,,,1.540000000000,   0.37600,
,,,1.550000000000,   0.39800,
,,,1.560000000000,   0.39000,
,,,1.570000000000,   0.38400,
,,,1.580000000000,   0.38200,
,,,1.590000000000,   0.36200,
,,,1.600000000000,   0.34400,
,,,1.610000000000,   0.38200,
,,,1.620000000000,   0.37200,
,,,1.630000000000,   0.36800,
,,,1.640000000000,   0.33600,
,,,1.650000000000,   0.39200,
,,,1.660000000000,   0.36800,
,,,1.670000000000,   0.37600,
,,,1.680000000000,   0.37400,
,,,1.690000000000,   0.39200,
,,,1.700000000000,   0.36800,
,,,1.710000000000,   0.36800,
,,,1.720000000000,   0.36400,
,,,1.730000000000,   0.35200,
,,,1.740000000000,   0.36400,
,,,1.750000000000,   0.37800,
,,,1.760000000000,   0.36600,
,,,1.770000000000,   0.37200,
,,,1.780000000000,   0.37600,
,,,1.790000000000,   0.34200,
,,,1.800000000000,   0.36600,
,,,1.810000000000,   0.35200,
,,,1.820000000000,   0.37200,
,,,1.830000000000,   0.35800,
,,,1.840000000000,   0.37600,
,,,1.850000000000,   0.39400,
,,,1.860000000000,   0.38400,
,,,1.870000000000,   0.34800,
,,,1.880000000000,   0.38800,
,,,1.890000000000,   0.40000,
,,,1.900000000000,   0.37200,
,,,1.910000000000,   0.38200,
,,,1.920000000000,   0.36400,
,,,1.930000000000,   0.40200,
,,,1.940000000000,   0.37800,
,,,1.950000000000,   0.40200,
,,,1.960000000000,   0.39800,
,,,1.970000000000,   0.38200,
,,,1.980000000000,   0.38200,
,,,1.990000000000,   0.34600,
,,,2.000000000000,   0.38800,
,,,2.010000000000,   0.38200,
,,,2.020000000000,   0.37600,
,,,2.030000000000,   0.35400,
,,,2.040000000000,   0.37400,
,,,2.050000000000,   0.38200,
,,,2.060000000000,   0.37000,
,,,2.070000000000,   0.39400,
,,,2.080000000000,   0.37600,
,,,2.090000000000,   0.37600,
,,,2.100000000000,   0.36800,
,,,2.110000000000,   0.37600,
,,,2.120000000000,   0.36400,
,,,2.130000000000,   0.37400,
,,,2.140000000000,   0.39600,
,,,2.150000000000,   0.36000,
,,,2.160000000000,   0.39800,
,,,2.170000000000,   0.36800,
,,,2.180000000000,   0.34800,
,,,2.190000000000,   0.37200,
,,,2.200000000000,   0.38200,
,,,2.210000000000,   0.39200,
,,,2.220000000000,   0.37400,
,,,2.230000000000,   0.36400,
,,,2.240000000000,   0.39000,
,,,2.250000000000,   0.35400,
,,,2.260000000000,   0.36800,
,,,2.270000000000,   0.36800,
,,,2.280000000000,   0.34400,
,,,2.290000000000,   0.38200,
,,,2.300000000000,   0.37800,
,,,2.310000000000,   0.39600,
,,,2.320000000000,   0.34800,
,,,2.330000000000,   0.34000,
,,,2.340000000000,   0.34200,
,,,2.350000000000,   0.36400,
,,,2.360000000000,   0.39000,
,,,2.370000000000,   0.36000,
,,,2.380000000000,   0.36200,
,,,2.390000000000,   0.36600,
,,,2.400000000000,   0.36000,
,,,2.410000000000,   0.40800,
,,,2.420000000000,   0.34600,
,,,2.430000000000,   0.36400,
,,,2.440000000000,   0.39000,
,,,2.450000000000,   0.37000,
,,,2.460000000000,   0.38600,
,,,2.470000000000,   0.40800,
,,,2.480000000000,   0.40000,
,,,2.490000000000,   0.38000,
,,,2.500000000000,   0.40400,
,,,2.510000000000,   0.39400,
,,,2.520000000000,   0.34800,
,,,2.530000000000,   0.40800,
,,,2.540000000000,   0.37800,
,,,2.550000000000,   0.35000,
,,,2.560000000000,   0.38400,
,,,2.570000000000,   0.39800,
,,,2.580000000000,   0.39600,
,,,2.590000000000,   0.38200,
,,,2.600000000000,   0.38000,
,,,2.610000000000,   0.39200,
,,,2.620000000000,   0.36800,
,,,2.630000000000,   0.38200,
,,,2.640000000000,   0.38000,
,,,2.650000000000,   0.37200,
,,,2.660000000000,   0.37800,
,,,2.670000000000,   0.36200,
,,,2.680000000000,   0.38600,
,,,2.690000000000,   0.35200,
,,,2.700000000000,   0.37400,
,,,2.710000000000,   0.36400,
,,,2.720000000000,   0.35800,
,,,2.730000000000,   0.38000,
,,,2.740000000000,   0.35600,
,,,2.750000000000,   0.39200,
,,,2.760000000000,   0.36800,
,,,2.770000000000,   0.36400,
,,,2.780000000000,   0.37600,
,,,2.790000000000,   0.36400,
,,,2.800000000000,   0.35800,
,,,2.810000000000,   0.38800,
,,,2.820000000000,   0.37600,
,,,2.830000000000,   0.39400,
,,,2.840000000000,   0.37800,
,,,2.850000000000,   0.39600,
,,,2.860000000000,   0.38600,
,,,2.870000000000,   0.35600,
,,,2.880000000000,   0.37600,
,,,2.890000000000,   0.36200,
,,,2.900000000000,   0.35600,
,,,2.910000000000,   0.38800,
,,,2.920000000000,   0.38200,
,,,2.930000000000,   0.35800,
,,,2.940000000000,   0.39000,
,,,2.950000000000,   0.40400,
,,,2.960000000000,   0.37800,
,,,2.970000000000,   0.38400,
,,,2.980000000000,   0.36400,
,,,2.990000000000,   0.40800,
,,,3.000000000000,   0.37000,
,,,3.010000000000,   0.38200,
,,,3.020000000000,   0.35800,
,,,3.030000000000,   0.34400,
,,,3.040000000000,   0.37200,
,,,3.050000000000,   0.38000,
,,,3.060000000000,   0.37600,
,,,3.070000000000,   0.41200,
,,,3.080000000000,   0.37600,
,,,3.090000000000,   0.36600,
,,,3.100000000000,   0.37400,
,,,3.110000000000,   0.38000,
,,,3.120000000000,   0.40000,
,,,3.130000000000,   0.39200,
,,,3.140000000000,   0.36600,
,,,3.150000000000,   0.39200,
,,,3.160000000000,   0.38000,
,,,3.170000000000,   0.40000,
,,,3.180000000000,   0.38200,
,,,3.190000000000,   0.38800,
,,,3.200000000000,   0.39600,
,,,3.210000000000,   0.35800,
,,,3.220000000000,   0.32600,
,,,3.230000000000,   0.31200,
,,,3.240000000000,   0.29000,
,,,3.250000000000,   0.26600,
,,,3.260000000000,   0.23200,
,,,3.270000000000,   0.27800,
,,,3.280000000000,   0.23400,
,,,3.290000000000,   0.27800,
,,,3.300000000000,   0.26800,
,,,3.310000000000,   0.27200,
,,,3.320000000000,   0.22400,
,,,3.330000000000,   0.25400,
,,,3.340000000000,   0.24000,
,,,3.350000000000,   0.26400,
,,,3.360000000000,   0.28000,
,,,3.370000000000,   0.24800,
,,,3.380000000000,   0.24200,
,,,3.390000000000,   0.25400,
,,,3.400000000000,   0.24200,
,,,3.410000000000,   0.26000,
,,,3.420000000000,   0.29400,
,,,3.430000000000,   0.23000,
,,,3.440000000000,   0.22800,
,,,3.450000000000,   0.25400,
,,,3.460000000000,   0.26800,
,,,3.470000000000,   0.24200,
,,,3.480000000000,   0.23800,
,,,3.490000000000,   0.28400,
,,,3.500000000000,   0.23200,
,,,3.510000000000,   0.26400,
,,,3.520000000000,   0.23200,
,,,3.530000000000,   0.25400,
,,,3.540000000000,   0.22600,
,,,3.550000000000,   0.24600,
,,,3.560000000000,   0.23400,
,,,3.570000000000,   0.26000,
,,,3.580000000000,   0.23200,
,,,3.590000000000,   0.27000,
,,,3.600000000000,   0.25000,
,,,3.610000000000,   0.25800,
,,,3.620000000000,   0.26600,
,,,3.630000000000,   0.23600,
,,,3.640000000000,   0.26200,
,,,3.650000000000,   0.24200,
,,,3.660000000000,   0.24000,
,,,3.670000000000,   0.23000,
,,,3.680000000000,   0.28200,
,,,3.690000000000,   0.23000,
,,,3.700000000000,   0.26400,
,,,3.710000000000,   0.24800,
,,,3.720000000000,   0.26000,
,,,3.730000000000,   0.24200,
,,,3.740000000000,   0.24600,
,,,3.750000000000,   0.24800,
,,,3.760000000000,   0.24200,
,,,3.770000000000,   0.28200,
,,,3.780000000000,   0.25800,
,,,3.790000000000,   0.27800,
,,,3.800000000000,   0.25600,
,,,3.810000000000,   0.28200,
,,,3.820000000000,   0.23200,
,,,3.830000000000,   0.24400,
,,,3.840000000000,   0.25200,
,,,3.850000000000,   0.26000,
,,,3.860000000000,   0.23600,
,,,3.870000000000,   0.23600,
,,,3.880000000000,   0.24200,
,,,3.890000000000,   0.26200,
,,,3.900000000000,   0.27800,
,,,3.910000000000,   0.27800,
,,,3.920000000000,   0.26200,
,,,3.930000000000,   0.26200,
,,,3.940000000000,   0.24000,
,,,3.950000000000,   0.23000,
,,,3.960000000000,   0.27600,
,,,3.970000000000,   0.23400,
,,,3.980000000000,   0.25200,
,,,3.990000000000,   0.25600,
,,,4.000000000000,   0.26000,
,,,4.010000000000,   0.25400,
,,,4.020000000000,   0.24800,
,,,4.030000000000,   0.23200,
,,,4.040000000000,   0.24400,
,,,4.050000000000,   0.25200,
,,,4.060000000000,   0.24800,
,,,4.070000000000,   0.23800,
,,,4.080000000000,   0.27400,
,,,4.090000000000,   0.26200,
,,,4.100000000000,   0.26600,
,,,4.110000000000,   0.21400,
,,,4.120000000000,   0.28000,
,,,4.130000000000,   0.24400,
,,,4.140000000000,   0.27800,
,,,4.150000000000,   0.25000,
,,,4.160000000000,   0.23600,
,,,4.170000000000,   0.25400,
,,,4.180000000000,   0.25000,
,,,4.190000000000,   0.26000,
,,,4.200000000000,   0.26200,
,,,4.210000000000,   0.24600,
,,,4.220000000000,   0.27000,
,,,4.230000000000,   0.29000,
,,,4.240000000000,   0.23600,
,,,4.250000000000,   0.24200,
,,,4.260000000000,   0.27200,
,,,4.270000000000,   0.26800,
,,,4.280000000000,   0.24400,
,,,4.290000000000,   0.24600,
,,,4.300000000000,   0.24800,
,,,4.310000000000,   0.24200,
,,,4.320000000000,   0.24000,
,,,4.330000000000,   0.25400,
,,,4.340000000000,   0.25800,
,,,4.350000000000,   0.24600,
,,,4.360000000000,   0.26200,
,,,4.370000000000,   0.28200,
,,,4.380000000000,   0.25200,
,,,4.390000000000,   0.25000,
,,,4.400000000000,   0.24600,
,,,4.410000000000,   0.24400,
,,,4.420000000000,   0.23200,
,,,4.430000000000,   0.23200,
,,,4.440000000000,   0.23800,
,,,4.450000000000,   0.28600,
,,,4.460000000000,   0.26400,
,,,4.470000000000,   0.28400,
,,,4.480000000000,   0.27400,
,,,4.490000000000,   0.23800,
,,,4.500000000000,   0.26400,
,,,4.510000000000,   0.25200,
,,,4.520000000000,   0.26400,
,,,4.530000000000,   0.26000,
,,,4.540000000000,   0.24800,
,,,4.550000000000,   0.29000,
,,,4.560000000000,   0.26400,
,,,4.570000000000,   0.26000,
,,,4.580000000000,   0.26200,
,,,4.590000000000,   0.23400,
,,,4.600000000000,   0.24200,
,,,4.610000000000,   0.27400,
,,,4.620000000000,   0.26200,
,,,4.630000000000,   0.29800,
,,,4.640000000000,   0.23800,
,,,4.650000000000,   0.26400,
,,,4.660000000000,   0.25200,
,,,4.670000000000,   0.28200,
,,,4.680000000000,   0.25400,
,,,4.690000000000,   0.22200,
,,,4.700000000000,   0.27800,
,,,4.710000000000,   0.23400,
,,,4.720000000000,   0.26400,
,,,4.730000000000,   0.26200,
,,,4.740000000000,   0.25400,
,,,4.750000000000,   0.25600,
,,,4.760000000000,   0.27600,
,,,4.770000000000,   0.24800,
,,,4.780000000000,   0.24600,
,,,4.790000000000,   0.24400,
,,,4.800000000000,   0.25200,
,,,4.810000000000,   0.24400,
,,,4.820000000000,   0.24000,
,,,4.830000000000,   0.25800,
,,,4.840000000000,   0.23200,
,,,4.850000000000,   0.27200,
,,,4.860000000000,   0.23400,
,,,4.870000000000,   0.26400,
,,,4.880000000000,   0.26000,
,,,4.890000000000,   0.24400,
,,,4.900000000000,   0.26600,
,,,4.910000000000,   0.25000,
,,,4.920000000000,   0.27000,
,,,4.930000000000,   0.25400,
,,,4.940000000000,   0.25400,
,,,4.950000000000,   0.23800,
,,,4.960000000000,   0.25400,
,,,4.970000000000,   0.26000,
,,,4.980000000000,   0.28400,
,,,4.990000000000,   0.23400,
,,,5.000000000000,   0.24000,
,,,5.010000000000,   0.26200,
,,,5.020000000000,   0.27400,
,,,5.030000000000,   0.26600,
,,,5.040000000000,   0.25400,
,,,5.050000000000,   0.21600,
,,,5.060000000000,   0.26600,
,,,5.070000000000,   0.24000,
,,,5.080000000000,   0.27800,
,,,5.090000000000,   0.27000,
,,,5.100000000000,   0.25200,
,,,5.110000000000,   0.23600,
,,,5.120000000000,   0.24800,
,,,5.130000000000,   0.27000,
,,,5.140000000000,   0.25200,
,,,5.150000000000,   0.26200,
,,,5.160000000000,   0.24000,
,,,5.170000000000,   0.25800,
,,,5.180000000000,   0.26200,
,,,5.190000000000,   0.23200,
,,,5.200000000000,   0.26800,
,,,5.210000000000,   0.24600,
,,,5.220000000000,   0.24400,
,,,5.230000000000,   0.24000,
,,,5.240000000000,   0.27800,
,,,5.250000000000,   0.25800,
,,,5.260000000000,   0.27200,
,,,5.270000000000,   0.25000,
,,,5.280000000000,   0.25000,
,,,5.290000000000,   0.23200,
,,,5.300000000000,   0.27000,
,,,5.310000000000,   0.19600,
,,,5.320000000000,   0.24000,
,,,5.330000000000,   0.22600,
,,,5.340000000000,   0.23000,
,,,5.350000000000,   0.23800,
,,,5.360000000000,   0.25600,
,,,5.370000000000,   0.24800,
,,,5.380000000000,   0.26200,
,,,5.390000000000,   0.26600,
,,,5.400000000000,   0.25200,
,,,5.410000000000,   0.28400,
,,,5.420000000000,   0.25800,
,,,5.430000000000,   0.22800,
,,,5.440000000000,   0.24000,
,,,5.450000000000,   0.25200,
,,,5.460000000000,   0.23400,
,,,5.470000000000,   0.24800,
,,,5.480000000000,   0.23600,
,,,5.490000000000,   0.27000,
,,,5.500000000000,   0.25400,
,,,5.510000000000,   0.22600,
,,,5.520000000000,   0.27000,
,,,5.530000000000,   0.27000,
,,,5.540000000000,   0.23800,
,,,5.550000000000,   0.27400,
,,,5.560000000000,   0.23000,
,,,5.570000000000,   0.22200,
,,,5.580000000000,   0.23200,
,,,5.590000000000,   0.24200,
,,,5.600000000000,   0.23800,
,,,5.610000000000,   0.26000,
,,,5.620000000000,   0.23800,
,,,5.630000000000,   0.25600,
,,,5.640000000000,   0.29600,
,,,5.650000000000,   0.26400,
,,,5.660000000000,   0.27800,
,,,5.670000000000,   0.23000,
,,,5.680000000000,   0.24400,
,,,5.690000000000,   0.26600,
,,,5.700000000000,   0.26400,
,,,5.710000000000,   0.24000,
,,,5.720000000000,   0.29200,
,,,5.730000000000,   0.22800,
,,,5.740000000000,   0.23600,
,,,5.750000000000,   0.23200,
,,,5.760000000000,   0.24000,
,,,5.770000000000,   0.24000,
,,,5.780000000000,   0.26000,
,,,5.790000000000,   0.24200,
,,,5.800000000000,   0.23600,
,,,5.810000000000,   0.23200,
,,,5.820000000000,   0.25200,
,,,5.830000000000,   0.23200,
,,,5.840000000000,   0.28200,
,,,5.850000000000,   0.24800,
,,,5.860000000000,   0.26600,
,,,5.870000000000,   0.26000,
,,,5.880000000000,   0.26000,
,,,5.890000000000,   0.26000,
,,,5.900000000000,   0.28600,
,,,5.910000000000,   0.24200,
,,,5.920000000000,   0.28200,
,,,5.930000000000,   0.26800,
,,,5.940000000000,   0.27200,
,,,5.950000000000,   0.27400,
,,,5.960000000000,   0.23600,
,,,5.970000000000,   0.24800,
,,,5.980000000000,   0.26000,
,,,5.990000000000,   0.22800,
,,,6.000000000000,   0.24800,
,,,6.010000000000,   0.25000,
,,,6.020000000000,   0.26400,
,,,6.030000000000,   0.25600,
,,,6.040000000000,   0.25000,
,,,6.050000000000,   0.23200,
,,,6.060000000000,   0.26600,
,,,6.070000000000,   0.24800,
,,,6.080000000000,   0.25400,
,,,6.090000000000,   0.24400,
,,,6.100000000000,   0.27200,
,,,6.110000000000,   0.22200,
,,,6.120000000000,   0.22600,
,,,6.130000000000,   0.26400,
,,,6.140000000000,   0.25800,
,,,6.150000000000,   0.23800,
,,,6.160000000000,   0.23600,
,,,6.170000000000,   0.25000,
,,,6.180000000000,   0.25200,
,,,6.190000000000,   0.26000,
,,,6.200000000000,   0.27000,
,,,6.210000000000,   0.27600,
,,,6.220000000000,   0.26400,
,,,6.230000000000,   0.25800,
,,,6.240000000000,   0.21600,
,,,6.250000000000,   0.23600,
,,,6.260000000000,   0.23600,
,,,6.270000000000,   0.26600,
,,,6.280000000000,   0.24800,
,,,6.290000000000,   0.27600,
,,,6.300000000000,   0.25800,
,,,6.310000000000,   0.25000,
,,,6.320000000000,   0.27800,
,,,6.330000000000,   0.22200,
,,,6.340000000000,   0.27200,
,,,6.350000000000,   0.25800,
,,,6.360000000000,   0.24800,
,,,6.370000000000,   0.28600,
,,,6.380000000000,   0.29400,
,,,6.390000000000,   0.29800,
,,,6.400000000000,   0.30400,
,,,6.410000000000,   0.29800,
,,,6.420000000000,   0.33000,
,,,6.430000000000,   0.32400,
,,,6.440000000000,   0.28800,
,,,6.450000000000,   0.33400,
,,,6.460000000000,   0.32000,
,,,6.470000000000,   0.31200,
,,,6.480000000000,   0.30000,
,,,6.490000000000,   0.31400,
,,,6.500000000000,   0.32600,
,,,6.510000000000,   0.30800,
,,,6.520000000000,   0.29400,
,,,6.530000000000,   0.33200,
