Sample data/Loading Time/TEK0005.CSV

Record Length,2.500000e+03,,   0.000000000000,   1.36800,
Sample Interval,1.000000e-02,,   0.010000000000,   1.27200,
Trigger Point,0.000000000000e+00,,   0.020000000000,   1.28000,
,,,   0.030000000000,   1.37600,
,,,   0.040000000000,   1.40000,
,,,   0.050000000000,   1.29600,
Source,CH1,,   0.060000000000,   1.33600,
Vertical Units,V,,   0.070000000000,   1.35200,
Vertical Scale,2.000000e-01,,   0.080000000000,   1.42400,
Vertical Offset,-9.040000e-01,,   0.090000000000,   1.32800,
Horizontal Units,s,,   0.100000000000,   1.29600,
Horizontal Scale,2.500000e+00,,   0.110000000000,   1.44000,
Pt Fmt,Y,,   0.120000000000,   1.44000,
Yzero,0.000000e+00,,   0.130000000000,   1.44000,
Probe Atten,1.000000e+01,,   0.140000000000,   1.44000,
Model Number,TDS2001C,,   0.150000000000,   1.40800,
Serial Number,C012118,,   0.160000000000,   1.34400,
Firmware Version,FV:v24.15,,   0.170000000000,   1.33600,
,,,0.180000000000,   1.34400,
,,,0.190000000000,   1.40800,
,,,0.200000000000,   1.45600,
,,,0.210000000000,   1.37600,
,,,0.220000000000,   1.32000,
,,,0.230000000000,   1.31200,
,,,0.240000000000,   1.42400,
,,,0.250000000000,   1.23200,
,,,0.260000000000,   1.32000,
,,,0.270000000000,   1.38400,
,,,0.280000000000,   1.36800,
,,,0.290000000000,   1.24800,
,,,0.300000000000,   1.25600,
,,,0.310000000000,   1.36000,
,,,0.320000000000,   1.39200,
,,,0.330000000000,   1.32000,
,,,0.340000000000,   1.19200,
,,,0.350000000000,   1.31200,
,,,0.360000000000,   1.40000,
,,,0.370000000000,   1.32000,
,,,0.380000000000,   1.28800,
,,,0.390000000000,   1.33600,
,,,0.400000000000,   1.40000,
,,,0.410000000000,   1.38400,
,,,0.420000000000,   1.24800,
,,,0.430000000000,   1.29600,
,,,0.440000000000,   1.38400,
,,,0.450000000000,   1.30400,
,,,0.460000000000,   1.34400,
,,,0.470000000000,   1.35200,
,,,0.480000000000,   1.21600,
,,,0.490000000000,   1.32000,
,,,0.500000000000,   1.38400,
,,,0.510000000000,   1.29600,
,,,0.520000000000,   1.29600,
,,,0.530000000000,   1.25600,
,,,0.540000000000,   1.35200,
,,,0.550000000000,   1.28000,
,,,0.560000000000,   1.37600,
,,,0.570000000000,   1.40000,
,,,0.580000000000,   1.30400,
,,,0.590000000000,   1.36800,
,,,0.600000000000,   1.34400,
,,,0.610000000000,   1.33600,
,,,0.620000000000,   1.38400,
,,,0.630000000000,   1.31200,
,,,0.640000000000,   1.30400,
,,,0.650000000000,   1.37600,
,,,0.660000000000,   1.26400,
,,,0.670000000000,   1.29600,
,,,0.680000000000,   1.37600,
,,,0.690000000000,   1.35200,
,,,0.700000000000,   1.28000,
,,,0.710000000000,   1.28000,
,,,0.720000000000,   1.29600,
,,,0.730000000000,   1.28800,
,,,0.740000000000,   1.26400,
,,,0.750000000000,   1.23200,
,,,0.760000000000,   1.29600,
,,,0.770000000000,   1.25600,
,,,0.780000000000,   1.34400,
,,,0.790000000000,   1.28000,
,,,0.800000000000,   1.28800,
,,,0.810000000000,   1.36000,
,,,0.820000000000,   1.28000,
,,,0.830000000000,   1.20000,
,,,0.840000000000,   1.37600,
,,,0.850000000000,   1.37600,
,,,0.860000000000,   1.24800,
,,,0.870000000000,   1.26400,
,,,0.880000000000,   1.27200,
,,,0.890000000000,   1.28800,
,,,0.900000000000,   1.34400,
,,,0.910000000000,   1.24000,
,,,0.920000000000,   1.24000,
,,,0.930000000000,   1.28800,
,,,0.940000000000,   1.28000,
,,,0.950000000000,   1.21600,
,,,0.960000000000,   1.32800,
,,,0.970000000000,   1.28000,
,,,0.980000000000,   1.32800,
,,,0.990000000000,   1.31200,
,,,1.000000000000,   1.25600,
,,,1.010000000000,   1.27200,
,,,1.020000000000,   1.24000,
,,,1.030000000000,   1.24000,
,,,1.040000000000,   1.25600,
,,,1.050000000000,   1.26400,
,,,1.060000000000,   1.18400,
,,,1.070000000000,   1.33600,
,,,1.080000000000,   1.28800,
,,,1.090000000000,   1.21600,
,,,1.100000000000,   1.31200,
,,,1.110000000000,   1.28800,
,,,1.120000000000,   1.26400,
,,,1.130000000000,   1.34400,
,,,1.140000000000,   1.20000,
,,,1.150000000000,   1.32000,
,,,1.160000000000,   1.40000,
,,,1.170000000000,   1.29600,
,,,1.180000000000,   1.24000,
,,,1.190000000000,   1.26400,
,,,1.200000000000,   1.36000,
,,,1.210000000000,   1.31200,
,,,1.220000000000,   1.22400,
,,,1.230000000000,   1.36800,
,,,1.240000000000,   1.34400,
,,,1.250000000000,   1.26400,
,,,1.260000000000,   1.28800,
,,,1.270000000000,   1.34400,
,,,1.280000000000,   1.30400,
,,,1.290000000000,   1.27200,
,,,1.300000000000,   1.27200,
,,,1.310000000000,   1.33600,
,,,1.320000000000,   1.35200,
,,,1.330000000000,   1.35200,
,,,1.340000000000,   1.27200,
,,,1.350000000000,   1.38400,
,,,1.360000000000,   1.43200,
,,,1.370000000000,   1.39200,
,,,1.380000000000,   1.29600,
,,,1.390000000000,   1.29600,
,,,1.400000000000,   1.41600,
,,,1.410000000000,   1.40800,
,,,1.420000000000,   1.30400,
,,,1.430000000000,   1.36000,
,,,1.440000000000,   1.32000,
,,,1.450000000000,   1.40000,
,,,1.460000000000,   1.34400,
,,,1.470000000000,   1.27200,
,,,1.480000000000,   1.41600,
,,,1.490000000000,   1.37600,
,,,1.500000000000,   1.25600,
,,,1.510000000000,   1.25600,
,,,1.520000000000,   1.36800,
,,,1.530000000000,   1.37600,
,,,1.540000000000,   1.32000,
,,,1.550000000000,   1.31200,
,,,1.560000000000,   1.27200,
,,,1.570000000000,   1.39200,
,,,1.580000000000,   1.27200,
,,,1.590000000000,   1.28000,
,,,1.600000000000,   1.38400,
,,,1.610000000000,   1.41600,
,,,1.620000000000,   1.31200,
,,,1.630000000000,   1.30400,
,,,1.640000000000,   1.40000,
,,,1.650000000000,   1.34400,
,,,1.660000000000,   1.28800,
,,,1.670000000000,   1.32800,
,,,1.680000000000,   1.40000,
,,,1.690000000000,   1.39200,
,,,1.700000000000,   1.36000,
,,,1.710000000000,   1.39200,
,,,1.720000000000,   1.36000,
,,,1.730000000000,   1.24800,
,,,1.740000000000,   1.27200,
,,,1.750000000000,   1.24000,
,,,1.760000000000,   1.41600,
,,,1.770000000000,   1.31200,
,,,1.780000000000,   1.26400,
,,,1.790000000000,   1.34400,
,,,1.800000000000,   1.37600,
,,,1.810000000000,   1.25600,
,,,1.820000000000,   1.40800,
,,,1.830000000000,   1.31200,
,,,1.840000000000,   1.21600,
,,,1.850000000000,   1.35200,
,,,1.860000000000,   1.39200,
,,,1.870000000000,   1.27200,
,,,1.880000000000,   1.30400,
,,,1.890000000000,   1.36800,
,,,1.900000000000,   1.37600,
,,,1.910000000000,   1.30400,
,,,1.920000000000,   1.28800,
,,,1.930000000000,   1.36800,
,,,1.940000000000,   1.43200,
,,,1.950000000000,   1.41600,
,,,1.960000000000,   1.34400,
,,,1.970000000000,   1.24800,
,,,1.980000000000,   1.33600,
,,,1.990000000000,   1.37600,
,,,2.000000000000,   1.21600,
,,,2.010000000000,   1.29600,
,,,2.020000000000,   1.33600,
,,,2.030000000000,   1.27200,
,,,2.040000000000,   1.21600,
,,,2.050000000000,   1.34400,
,,,2.060000000000,   1.32800,
,,,2.070000000000,   1.34400,
,,,2.080000000000,   1.31200,
,,,2.090000000000,   1.22400,
,,,2.100000000000,   1.35200,
,,,2.110000000000,   1.29600,
,,,2.120000000000,   1.27200,
,,,2.130000000000,   1.29600,
,,,2.140000000000,   1.22400,
,,,2.150000000000,   1.35200,
,,,2.160000000000,   1.31200,
,,,2.170000000000,   1.25600,
,,,2.180000000000,   1.23200,
,,,2.190000000000,   1.37600,
,,,2.200000000000,   1.36000,
,,,2.210000000000,   1.27200,
,,,2.220000000000,   1.25600,
,,,2.230000000000,   1.30400,
,,,2.240000000000,   1.35200,
,,,2.250000000000,   1.26400,
,,,2.260000000000,   1.25600,
,,,2.270000000000,   1.32800,
,,,2.280000000000,   1.28800,
,,,2.290000000000,   1.32000,
,,,2.300000000000,   1.36800,
,,,2.310000000000,   1.34400,
,,,2.320000000000,   1.28800,
,,,2.330000000000,   1.23200,
,,,2.340000000000,   1.28800,
,,,2.350000000000,   1.35200,
,,,2.360000000000,   1.24800,
,,,2.370000000000,   1.31200,
,,,2.380000000000,   1.28000,
,,,2.390000000000,   1.21600,
,,,2.400000000000,   1.30400,
,,,2.410000000000,   1.36000,
,,,2.420000000000,   1.28000,
,,,2.430000000000,   1.30400,
,,,2.440000000000,   1.34400,
,,,2.450000000000,   1.27200,
,,,2.460000000000,   1.40800,
,,,2.470000000000,   1.32800,
,,,2.480000000000,   1.26400,
,,,2.490000000000,   1.30400,
,,,2.500000000000,   1.35200,
,,,2.510000000000,   1.28800,
,,,2.520000000000,   1.29600,
,,,2.530000000000,   1.36800,
,,,2.540000000000,   1.40800,
,,,2.550000000000,   1.39200,
,,,2.560000000000,   1.30400,
,,,2.570000000000,   1.29600,
,,,2.580000000000,   1.32800,
,,,2.590000000000,   1.36000,
,,,2.600000000000,   1.31200,
,,,2.610000000000,   1.35200,
,,,2.620000000000,   1.19200,
,,,2.630000000000,   0.52000,
,,,2.640000000000,   0.30400,
,,,2.650000000000,   0.27200,
,,,2.660000000000,   0.26400,
,,,2.670000000000,   0.24800,
,,,2.680000000000,   0.25600,
,,,2.690000000000,   0.26400,
,,,2.700000000000,   0.25600,
,,,2.710000000000,   0.24800,
,,,2.720000000000,   0.26400,
,,,2.730000000000,   0.25600,
,,,2.740000000000,   0.28800,
,,,2.750000000000,   0.29600,
,,,2.760000000000,   0.28800,
,,,2.770000000000,   0.26400,
,,,2.780000000000,   0.29600,
,,,2.790000000000,   0.28000,
,,,2.800000000000,   0.26400,
,,,2.810000000000,   0.26400,
,,,2.820000000000,   0.27200,
,,,2.830000000000,   0.28800,
,,,2.840000000000,   0.30400,
,,,2.850000000000,   0.26400,
,,,2.860000000000,   0.26400,
,,,2.870000000000,   0.25600,
,,,2.880000000000,   0.28000,
,,,2.890000000000,   0.25600,
,,,2.900000000000,   0.27200,
,,,2.910000000000,   0.26400,
,,,2.920000000000,   0.27200,
,,,2.930000000000,   0.26400,
,,,2.940000000000,   0.26400,
,,,2.950000000000,   0.27200,
,,,2.960000000000,   0.30400,
,,,2.970000000000,   0.25600,
,,,2.980000000000,   0.28000,
,,,2.990000000000,   0.24800,
,,,3.000000000000,   0.29600,
,,,3.010000000000,   0.26400,
,,,3.020000000000,   0.28000,
,,,3.030000000000,   0.27200,
,,,3.040000000000,   0.27200,
,,,3.050000000000,   0.26400,
,,,3.060000000000,   0.28800,
,,,3.070000000000,   0.30400,
,,,3.080000000000,   0.27200,
,,,3.090000000000,   0.27200,
,,,3.100000000000,   0.25600,
,,,3.110000000000,   0.28800,
,,,3.120000000000,   0.29600,
,,,3.130000000000,   0.27200,
,,,3.140000000000,   0.30400,
,,,3.150000000000,   0.28000,
,,,3.160000000000,   0.25600,
,,,3.170000000000,   0.24800,
,,,3.180000000000,   0.27200,
,,,3.190000000000,   0.26400,
,,,3.200000000000,   0.26400,
,,,3.210000000000,   0.28800,
,,,3.220000000000,   0.32000,
,,,3.230000000000,   0.27200,
,,,3.240000000000,   0.27200,
,,,3.250000000000,   0.24800,
,,,3.260000000000,   0.25600,
,,,3.270000000000,   0.29600,
,,,3.280000000000,   0.24800,
,,,3.290000000000,   0.28000,
,,,3.300000000000,   0.24800,
,,,3.310000000000,   0.24800,
,,,3.320000000000,   0.27200,
,,,3.330000000000,   0.27200,
,,,3.340000000000,   0.24800,
,,,3.350000000000,   0.27200,
,,,3.360000000000,   0.24800,
,,,3.370000000000,   0.27200,
,,,3.380000000000,   0.24800,
,,,3.390000000000,   0.26400,
,,,3.400000000000,   0.27200,
,,,3.410000000000,   0.24800,
,,,3.420000000000,   0.26400,
,,,3.430000000000,   0.27200,
,,,3.440000000000,   0.25600,
,,,3.450000000000,   0.27200,
,,,3.460000000000,   0.28800,
,,,3.470000000000,   0.27200,
,,,3.480000000000,   0.30400,
,,,3.490000000000,   0.28800,
,,,3.500000000000,   0.26400,
,,,3.510000000000,   0.28000,
,,,3.520000000000,   0.28000,
,,,3.530000000000,   0.28800,
,,,3.540000000000,   0.26400,
,,,3.550000000000,   0.27200,
,,,3.560000000000,   0.28000,
,,,3.570000000000,   0.28800,
,,,3.580000000000,   0.29600,
,,,3.590000000000,   0.28000,
,,,3.600000000000,   0.29600,
,,,3.610000000000,   0.28800,
,,,3.620000000000,   0.27200,
,,,3.630000000000,   0.29600,
,,,3.640000000000,   0.30400,
,,,3.650000000000,   0.28800,
,,,3.660000000000,   0.25600,
,,,3.670000000000,   0.26400,
,,,3.680000000000,   0.25600,
,,,3.690000000000,   0.24800,
,,,3.700000000000,   0.27200,
,,,3.710000000000,   0.28800,
,,,3.720000000000,   0.24800,
,,,3.730000000000,   0.30400,
,,,3.740000000000,   0.27200,
,,,3.750000000000,   0.28000,
,,,3.760000000000,   0.28000,
,,,3.770000000000,   0.28800,
,,,3.780000000000,   0.27200,
,,,3.790000000000,   0.24800,
,,,3.800000000000,   0.27200,
,,,3.810000000000,   0.28800,
,,,3.820000000000,   0.30400,
,,,3.830000000000,   0.30400,
,,,3.840000000000,   0.29600,
,,,3.850000000000,   0.25600,
,,,3.860000000000,   0.26400,
,,,3.870000000000,   0.28000,
,,,3.880000000000,   0.24800,
,,,3.890000000000,   0.30400,
,,,3.900000000000,   0.28000,
,,,3.910000000000,   0.27200,
,,,3.920000000000,   0.27200,
,,,3.930000000000,   0.28000,
,,,3.940000000000,   0.27200,
,,,3.950000000000,   0.26400,
,,,3.960000000000,   0.29600,
,,,3.970000000000,   0.27200,
,,,3.980000000000,   0.28800,
,,,3.990000000000,   0.27200,
,,,4.000000000000,   0.25600,
,,,4.010000000000,   0.30400,
,,,4.020000000000,   0.28000,
,,,4.030000000000,   0.29600,
,,,4.040000000000,   0.29600,
,,,4.050000000000,   0.29600,
,,,4.060000000000,   0.28000,
,,,4.070000000000,   0.27200,
,,,4.080000000000,   0.30400,
,,,4.090000000000,   0.26400,
,,,4.100000000000,   0.28000,
,,,4.110000000000,   0.28800,
,,,4.120000000000,   0.29600,
,,,4.130000000000,   0.28800,
,,,4.140000000000,   0.27200,
,,,4.150000000000,   0.25600,
,,,4.160000000000,   0.28800,
,,,4.170000000000,   0.28800,
,,,4.180000000000,   0.28800,
,,,4.190000000000,   0.31200,
,,,4.200000000000,   0.24800,
,,,4.210000000000,   0.28000,
,,,4.220000000000,   0.27200,
,,,4.230000000000,   0.28800,
,,,4.240000000000,   0.28800,
,,,4.250000000000,   0.28800,
,,,4.260000000000,   0.26400,
,,,4.270000000000,   0.30400,
,,,4.280000000000,   0.28000,
,,,4.290000000000,   0.29600,
,,,4.300000000000,   0.29600,
,,,4.310000000000,   0.27200,
,,,4.320000000000,   0.28800,
,,,4.330000000000,   0.29600,
,,,4.340000000000,   0.27200,
,,,4.350000000000,   0.25600,
,,,4.360000000000,   0.28000,
,,,4.370000000000,   0.27200,
,,,4.380000000000,   0.28800,
,,,4.390000000000,   0.29600,
,,,4.400000000000,   0.28800,
,,,4.410000000000,   0.28800,
,,,4.420000000000,   0.30400,
,,,4.430000000000,   0.30400,
,,,4.440000000000,   0.28800,
,,,4.450000000000,   0.28000,
,,,4.460000000000,   0.27200,
,,,4.470000000000,   0.24800,
,,,4.480000000000,   0.28800,
,,,4.490000000000,   0.28800,
,,,4.500000000000,   0.26400,
,,,4.510000000000,   0.28800,
,,,4.520000000000,   0.28800,
,,,4.530000000000,   0.28800,
,,,4.540000000000,   0.30400,
,,,4.550000000000,   0.27200,
,,,4.560000000000,   0.30400,
,,,4.570000000000,   0.28000,
,,,4.580000000000,   0.29600,
,,,4.590000000000,   0.27200,
,,,4.600000000000,   0.26400,
,,,4.610000000000,   0.28000,
,,,4.620000000000,   0.28000,
,,,4.630000000000,   0.25600,
,,,4.640000000000,   0.25600,
,,,4.650000000000,   0.36000,
,,,4.660000000000,   0.34400,
,,,4.670000000000,   0.30400,
,,,4.680000000000,   0.31200,
,,,4.690000000000,   0.33600,
,,,4.700000000000,   0.35200,
,,,4.710000000000,   0.36800,
,,,4.720000000000,   0.34400,
,,,4.730000000000,   0.32800,
,,,4.740000000000,   0.32800,
,,,4.750000000000,   0.35200,
,,,4.760000000000,   0.37600,
,,,4.770000000000,   0.37600,
,,,4.780000000000,   0.34400,
,,,4.790000000000,   0.37600,
,,,4.800000000000,   0.37600,
,,,4.810000000000,   0.36800,
,,,4.820000000000,   0.36000,
,,,4.830000000000,   0.38400,
,,,4.840000000000,   0.38400,
,,,4.850000000000,   0.35200,
,,,4.860000000000,   0.38400,
,,,4.870000000000,   0.40000,
,,,4.880000000000,   0.40800,
,,,4.890000000000,   0.39200,
,,,4.900000000000,   0.38400,
,,,4.910000000000,   0.40800,
,,,4.920000000000,   0.36800,
,,,4.930000000000,   0.40000,
,,,4.940000000000,   0.38400,
,,,4.950000000000,   0.40000,
,,,4.960000000000,   0.42400,
,,,4.970000000000,   0.38400,
,,,4.980000000000,   0.39200,
,,,4.990000000000,   0.40800,
,,,5.000000000000,   0.44800,
,,,5.010000000000,   0.43200,
,,,5.020000000000,   0.38400,
,,,5.030000000000,   0.40000,
,,,5.040000000000,   0.43200,
,,,5.050000000000,   0.44000,
,,,5.060000000000,   0.45600,
,,,5.070000000000,   0.43200,
,,,5.080000000000,   0.45600,
,,,5.090000000000,   0.45600,
,,,5.100000000000,   0.44800,
,,,5.110000000000,   0.41600,
,,,5.120000000000,   0.43200,
,,,5.130000000000,   0.44000,
,,,5.140000000000,   0.45600,
,,,5.150000000000,   0.44800,
,,,5.160000000000,   0.44800,
,,,5.170000000000,   0.48000,
,,,5.180000000000,   0.42400,
,,,5.190000000000,   0.47200,
,,,5.200000000000,   0.46400,
,,,5.210000000000,   0.47200,
,,,5.220000000000,   0.46400,
,,,5.230000000000,   0.49600,
,,,5.240000000000,   0.44800,
,,,5.250000000000,   0.48800,
,,,5.260000000000,   0.51200,
,,,5.270000000000,   0.51200,
,,,5.280000000000,   0.49600,
,,,5.290000000000,   0.51200,
,,,5.300000000000,   0.49600,
,,,5.310000000000,   0.48800,
,,,5.320000000000,   0.52800,
,,,5.330000000000,   0.46400,
,,,5.340000000000,   0.49600,
,,,5.350000000000,   0.52000,
,,,5.360000000000,   0.48800,
,,,5.370000000000,   0.51200,
,,,5.380000000000,   0.54400,
,,,5.390000000000,   0.52800,
,,,5.400000000000,   0.49600,
,,,5.410000000000,   0.52800,
,,,5.420000000000,   0.52800,
,,,5.430000000000,   0.51200,
,,,5.440000000000,   0.52800,
,,,5.450000000000,   0.52800,
,,,5.460000000000,   0.50400,
,,,5.470000000000,   0.53600,
,,,5.480000000000,   0.52000,
,,,5.490000000000,   0.57600,
,,,5.500000000000,   0.52000,
,,,5.510000000000,   0.56800,
,,,5.520000000000,   0.57600,
,,,5.530000000000,   0.56000,
,,,5.540000000000,   0.55200,
,,,5.550000000000,   0.59200,
,,,5.560000000000,   0.55200,
,,,5.570000000000,   0.56800,
,,,5.580000000000,   0.55200,
,,,5.590000000000,   0.56800,
,,,5.600000000000,   0.57600,
,,,5.610000000000,   0.57600,
,,,5.620000000000,   0.59200,
,,,5.630000000000,   0.58400,
,,,5.640000000000,   0.58400,
,,,5.650000000000,   0.60800,
,,,5.660000000000,   0.56800,
,,,5.670000000000,   0.59200,
,,,5.680000000000,   0.56000,
,,,5.690000000000,   0.60800,
,,,5.700000000000,   0.56800,
,,,5.710000000000,   0.60000,
,,,5.720000000000,   0.62400,
,,,5.730000000000,   0.63200,
,,,5.740000000000,   0.62400,
,,,5.750000000000,   0.61600,
,,,5.760000000000,   0.64000,
,,,5.770000000000,   0.65600,
,,,5.780000000000,   0.62400,
,,,5.790000000000,   0.63200,
,,,5.800000000000,   0.66400,
,,,5.810000000000,   0.64800,
,,,5.820000000000,   0.65600,
,,,5.830000000000,   0.64800,
,,,5.840000000000,   0.60800,
,,,5.850000000000,   0.65600,
,,,5.860000000000,   0.63200,
,,,5.870000000000,   0.63200,
,,,5.880000000000,   0.70400,
,,,5.890000000000,   0.62400,
,,,5.900000000000,   0.65600,
,,,5.910000000000,   0.64000,
,,,5.920000000000,   0.66400,
,,,5.930000000000,   0.65600,
,,,5.940000000000,   0.64800,
,,,5.950000000000,   0.68000,
,,,5.960000000000,   0.67200,
,,,5.970000000000,   0.68000,
,,,5.980000000000,   0.65600,
,,,5.990000000000,   0.64800,
,,,6.000000000000,   0.65600,
,,,6.010000000000,   0.65600,
,,,6.020000000000,   0.66400,
,,,6.030000000000,   0.68800,
,,,6.040000000000,   0.70400,
,,,6.050000000000,   0.68000,
,,,6.060000000000,   0.67200,
,,,6.070000000000,   0.70400,
,,,6.080000000000,   0.64800,
,,,6.090000000000,   0.66400,
,,,6.100000000000,   0.67200,
,,,6.110000000000,   0.72000,
,,,6.120000000000,   0.68800,
,,,6.130000000000,   0.70400,
,,,6.140000000000,   0.71200,
,,,6.150000000000,   0.71200,
,,,6.160000000000,   0.71200,
,,,6.170000000000,   0.71200,
,,,6.180000000000,   0.69600,
,,,6.190000000000,   0.70400,
,,,6.200000000000,   0.72000,
,,,6.210000000000,   0.71200,
,,,6.220000000000,   0.77600,
,,,6.230000000000,   0.75200,
,,,6.240000000000,   0.67200,
,,,6.250000000000,   0.75200,
,,,6.260000000000,   0.70400,
,,,6.270000000000,   0.71200,
,,,6.280000000000,   0.79200,
,,,6.290000000000,   0.72000,
,,,6.300000000000,   0.71200,
,,,6.310000000000,   0.72800,
,,,6.320000000000,   0.72800,
,,,6.330000000000,   0.69600,
,,,6.340000000000,   0.74400,
,,,6.350000000000,   0.78400,
,,,6.360000000000,   0.76000,
,,,6.370000000000,   0.76000,
,,,6.380000000000,   0.72800,
,,,6.390000000000,   0.69600,
,,,6.400000000000,   0.76000,
,,,6.410000000000,   0.74400,
,,,6.420000000000,   0.74400,
,,,6.430000000000,   0.78400,
,,,6.440000000000,   0.75200,
,,,6.450000000000,   0.79200,
,,,6.460000000000,   0.76800,
,,,6.470000000000,   0.76800,
,,,6.480000000000,   0.80800,
,,,6.490000000000,   0.83200,
,,,6.500000000000,   0.79200,
,,,6.510000000000,   0.75200,
,,,6.520000000000,   0.76000,
,,,6.530000000000,   0.79200,
