Sample data/Loading Time/TEK0004.CSV

Record Length,2.500000e+03,,   0.000000000000,   0.07600,
Sample Interval,1.000000e-02,,   0.010000000000,   0.07600,
Trigger Point,0.000000000000e+00,,   0.020000000000,   0.07600,
,,,   0.030000000000,   0.07600,
,,,   0.040000000000,   0.07600,
,,,   0.050000000000,   0.07600,
Source,CH1,,   0.060000000000,   0.07600,
Vertical Units,V,,   0.070000000000,   0.07600,
Vertical Scale,5.000000e-02,,   0.080000000000,   0.07600,
Vertical Offset,-3.320000e-01,,   0.090000000000,   0.07600,
Horizontal Units,s,,   0.100000000000,   0.07600,
Horizontal Scale,2.500000e+00,,   0.110000000000,   0.07600,
Pt Fmt,Y,,   0.120000000000,   0.36800,
Yzero,0.000000e+00,,   0.130000000000,   0.35200,
Probe Atten,1.000000e+01,,   0.140000000000,   0.37600,
Model Number,TDS2001C,,   0.150000000000,   0.36200,
Serial Number,C012118,,   0.160000000000,   0.35600,
Firmware Version,FV:v24.15,,   0.170000000000,   0.37400,
,,,0.180000000000,   0.41800,
,,,0.190000000000,   0.37400,
,,,0.200000000000,   0.36000,
,,,0.210000000000,   0.34400,
,,,0.220000000000,   0.35600,
,,,0.230000000000,   0.36800,
,,,0.240000000000,   0.37400,
,,,0.250000000000,   0.37800,
,,,0.260000000000,   0.37000,
,,,0.270000000000,   0.36000,
,,,0.280000000000,   0.39400,
,,,0.290000000000,   0.38000,
,,,0.300000000000,   0.39200,
,,,0.310000000000,   0.40200,
,,,0.320000000000,   0.35800,
,,,0.330000000000,   0.38600,
,,,0.340000000000,   0.35600,
,,,0.350000000000,   0.38600,
,,,0.360000000000,   0.37400,
,,,0.370000000000,   0.36400,
,,,0.380000000000,   0.35000,
,,,0.390000000000,   0.35800,
,,,0.400000000000,   0.37600,
,,,0.410000000000,   0.36200,
,,,0.420000000000,   0.37000,
,,,0.430000000000,   0.36000,
,,,0.440000000000,   0.38000,
,,,0.450000000000,   0.34600,
,,,0.460000000000,   0.38000,
,,,0.470000000000,   0.36600,
,,,0.480000000000,   0.39800,
,,,0.490000000000,   0.37400,
,,,0.500000000000,   0.37000,
,,,0.510000000000,   0.34600,
,,,0.520000000000,   0.35200,
,,,0.530000000000,   0.37000,
,,,0.540000000000,   0.35000,
,,,0.550000000000,   0.37400,
,,,0.560000000000,   0.35800,
,,,0.570000000000,   0.36000,
,,,0.580000000000,   0.35600,
,,,0.590000000000,   0.38000,
,,,0.600000000000,   0.38000,
,,,0.610000000000,   0.38600,
,,,0.620000000000,   0.38400,
,,,0.630000000000,   0.37800,
,,,0.640000000000,   0.38200,
,,,0.650000000000,   0.37000,
,,,0.660000000000,   0.37600,
,,,0.670000000000,   0.37200,
,,,0.680000000000,   0.37200,
,,,0.690000000000,   0.38200,
,,,0.700000000000,   0.37400,
,,,0.710000000000,   0.35600,
,,,0.720000000000,   0.35000,
,,,0.730000000000,   0.37800,
,,,0.740000000000,   0.37600,
,,,0.750000000000,   0.35800,
,,,0.760000000000,   0.37200,
,,,0.770000000000,   0.35200,
,,,0.780000000000,   0.37000,
,,,0.790000000000,   0.39200,
,,,0.800000000000,   0.35600,
,,,0.810000000000,   0.34000,
,,,0.820000000000,   0.40400,
,,,0.830000000000,   0.37000,
,,,0.840000000000,   0.37600,
,,,0.850000000000,   0.37200,
,,,0.860000000000,   0.38000,
,,,0.870000000000,   0.38000,
,,,0.880000000000,   0.37200,
,,,0.890000000000,   0.38000,
,,,0.900000000000,   0.37800,
,,,0.910000000000,   0.35200,
,,,0.920000000000,   0.38400,
,,,0.930000000000,   0.34600,
,,,0.940000000000,   0.38400,
,,,0.950000000000,   0.36600,
,,,0.960000000000,   0.37000,
,,,0.970000000000,   0.33200,
,,,0.980000000000,   0.36800,
,,,0.990000000000,   0.35200,
,,,1.000000000000,   0.40400,
,,,1.010000000000,   0.38200,
,,,1.020000000000,   0.36400,
,,,1.030000000000,   0.37600,
,,,1.040000000000,   0.36200,
,,,1.050000000000,   0.35600,
,,,1.060000000000,   0.36600,
,,,1.070000000000,   0.40000,
,,,1.080000000000,   0.35600,
,,,1.090000000000,   0.36600,
,,,1.100000000000,   0.35000,
,,,1.110000000000,   0.36400,
,,,1.120000000000,   0.37400,
,,,1.130000000000,   0.38000,
,,,1.140000000000,   0.36000,
,,,1.150000000000,   0.36400,
,,,1.160000000000,   0.36600,
,,,1.170000000000,   0.40000,
,,,1.180000000000,   0.38200,
,,,1.190000000000,   0.36200,
,,,1.200000000000,   0.37600,
,,,1.210000000000,   0.35800,
,,,1.220000000000,   0.36600,
,,,1.230000000000,   0.37600,
,,,1.240000000000,   0.35400,
,,,1.250000000000,   0.37600,
,,,1.260000000000,   0.38800,
,,,1.270000000000,   0.36200,
,,,1.280000000000,   0.35600,
,,,1.290000000000,   0.36800,
,,,1.300000000000,   0.34600,
,,,1.310000000000,   0.41800,
,,,1.320000000000,   0.36000,
,,,1.330000000000,   0.38400,
,,,1.340000000000,   0.34800,
,,,1.350000000000,   0.37800,
,,,1.360000000000,   0.36600,
,,,1.370000000000,   0.39200,
,,,1.380000000000,   0.40000,
,,,1.390000000000,   0.36200,
,,,1.400000000000,   0.37400,
,,,1.410000000000,   0.37400,
,,,1.420000000000,   0.36600,
,,,1.430000000000,   0.39200,
,,,1.440000000000,   0.39400,
,,,1.450000000000,   0.36800,
,,,1.460000000000,   0.38000,
,,,1.470000000000,   0.35600,
,,,1.480000000000,   0.34200,
,,,1.490000000000,   0.37000,
,,,1.500000000000,   0.37000,
,,,1.510000000000,   0.37400,
,,,1.520000000000,   0.38400,
,,,1.530000000000,   0.38200,
,,,1.540000000000,   0.34800,
,,,1.550000000000,   0.35000,
,,,1.560000000000,   0.35800,
,,,1.570000000000,   0.36400,
,,,1.580000000000,   0.39600,
,,,1.590000000000,   0.37600,
,,,1.600000000000,   0.36400,
,,,1.610000000000,   0.37600,
,,,1.620000000000,   0.36800,
,,,1.630000000000,   0.38000,
,,,1.640000000000,   0.40800,
,,,1.650000000000,   0.35800,
,,,1.660000000000,   0.35000,
,,,1.670000000000,   0.34000,
,,,1.680000000000,   0.37000,
,,,1.690000000000,   0.35400,
,,,1.700000000000,   0.35200,
,,,1.710000000000,   0.40000,
,,,1.720000000000,   0.40400,
,,,1.730000000000,   0.38000,
,,,1.740000000000,   0.39000,
,,,1.750000000000,   0.35200,
,,,1.760000000000,   0.41200,
,,,1.770000000000,   0.36800,
,,,1.780000000000,   0.38000,
,,,1.790000000000,   0.36600,
,,,1.800000000000,   0.38000,
,,,1.810000000000,   0.35400,
,,,1.820000000000,   0.35600,
,,,1.830000000000,   0.37200,
,,,1.840000000000,   0.38600,
,,,1.850000000000,   0.36000,
,,,1.860000000000,   0.40800,
,,,1.870000000000,   0.37000,
,,,1.880000000000,   0.38600,
,,,1.890000000000,   0.36200,
,,,1.900000000000,   0.36800,
,,,1.910000000000,   0.36600,
,,,1.920000000000,   0.38600,
,,,1.930000000000,   0.36800,
,,,1.940000000000,   0.34800,
,,,1.950000000000,   0.34800,
,,,1.960000000000,   0.35200,
,,,1.970000000000,   0.36600,
,,,1.980000000000,   0.36800,
,,,1.990000000000,   0.34800,
,,,2.000000000000,   0.36400,
,,,2.010000000000,   0.36800,
,,,2.020000000000,   0.36600,
,,,2.030000000000,   0.36600,
,,,2.040000000000,   0.36400,
,,,2.050000000000,   0.35600,
,,,2.060000000000,   0.37000,
,,,2.070000000000,   0.34400,
,,,2.080000000000,   0.34800,
,,,2.090000000000,   0.34600,
,,,2.100000000000,   0.38600,
,,,2.110000000000,   0.36200,
,,,2.120000000000,   0.35600,
,,,2.130000000000,   0.36600,
,,,2.140000000000,   0.35800,
,,,2.150000000000,   0.36800,
,,,2.160000000000,   0.40000,
,,,2.170000000000,   0.38800,
,,,2.180000000000,   0.37800,
,,,2.190000000000,   0.34800,
,,,2.200000000000,   0.36200,
,,,2.210000000000,   0.38400,
,,,2.220000000000,   0.38200,
,,,2.230000000000,   0.37600,
,,,2.240000000000,   0.38200,
,,,2.250000000000,   0.37200,
,,,2.260000000000,   0.38600,
,,,2.270000000000,   0.35600,
,,,2.280000000000,   0.39600,
,,,2.290000000000,   0.37600,
,,,2.300000000000,   0.36800,
,,,2.310000000000,   0.36600,
,,,2.320000000000,   0.38200,
,,,2.330000000000,   0.39200,
,,,2.340000000000,   0.37400,
,,,2.350000000000,   0.37600,
,,,2.360000000000,   0.35800,
,,,2.370000000000,   0.38200,
,,,2.380000000000,   0.38200,
,,,2.390000000000,   0.41000,
,,,2.400000000000,   0.35400,
,,,2.410000000000,   0.38800,
,,,2.420000000000,   0.37400,
,,,2.430000000000,   0.37800,
,,,2.440000000000,   0.35800,
,,,2.450000000000,   0.37400,
,,,2.460000000000,   0.35600,
,,,2.470000000000,   0.37000,
,,,2.480000000000,   0.36600,
,,,2.490000000000,   0.37600,
,,,2.500000000000,   0.40400,
,,,2.510000000000,   0.34000,
,,,2.520000000000,   0.38600,
,,,2.530000000000,   0.38200,
,,,2.540000000000,   0.39200,
,,,2.550000000000,   0.36600,
,,,2.560000000000,   0.36600,
,,,2.570000000000,   0.36800,
,,,2.580000000000,   0.38000,
,,,2.590000000000,   0.38200,
,,,2.600000000000,   0.37600,
,,,2.610000000000,   0.35600,
,,,2.620000000000,   0.35800,
,,,2.630000000000,   0.35800,
,,,2.640000000000,   0.34400,
,,,2.650000000000,   0.36400,
,,,2.660000000000,   0.35200,
,,,2.670000000000,   0.34200,
,,,2.680000000000,   0.36200,
,,,2.690000000000,   0.35600,
,,,2.700000000000,   0.36400,
,,,2.710000000000,   0.35200,
,,,2.720000000000,   0.36000,
,,,2.730000000000,   0.34800,
,,,2.740000000000,   0.34800,
,,,2.750000000000,   0.39800,
,,,2.760000000000,   0.38000,
,,,2.770000000000,   0.38600,
,,,2.780000000000,   0.38400,
,,,2.790000000000,   0.34000,
,,,2.800000000000,   0.36400,
,,,2.810000000000,   0.36800,
,,,2.820000000000,   0.36400,
,,,2.830000000000,   0.37000,
,,,2.840000000000,   0.36400,
,,,2.850000000000,   0.35200,
,,,2.860000000000,   0.37400,
,,,2.870000000000,   0.36200,
,,,2.880000000000,   0.35800,
,,,2.890000000000,   0.39000,
,,,2.900000000000,   0.37000,
,,,2.910000000000,   0.32400,
,,,2.920000000000,   0.37200,
,,,2.930000000000,   0.37000,
,,,2.940000000000,   0.38200,
,,,2.950000000000,   0.34600,
,,,2.960000000000,   0.37000,
,,,2.970000000000,   0.36800,
,,,2.980000000000,   0.35800,
,,,2.990000000000,   0.35800,
,,,3.000000000000,   0.34600,
,,,3.010000000000,   0.35800,
,,,3.020000000000,   0.38400,
,,,3.030000000000,   0.38000,
,,,3.040000000000,   0.34800,
,,,3.050000000000,   0.34200,
,,,3.060000000000,   0.36800,
,,,3.070000000000,   0.37000,
,,,3.080000000000,   0.33600,
,,,3.090000000000,   0.36200,
,,,3.100000000000,   0.36800,
,,,3.110000000000,   0.30200,
,,,3.120000000000,   0.35200,
,,,3.130000000000,   0.39800,
,,,3.140000000000,   0.39000,
,,,3.150000000000,   0.35800,
,,,3.160000000000,   0.38000,
,,,3.170000000000,   0.35200,
,,,3.180000000000,   0.35600,
,,,3.190000000000,   0.36000,
,,,3.200000000000,   0.38000,
,,,3.210000000000,   0.35200,
,,,3.220000000000,   0.40800,
,,,3.230000000000,   0.35800,
,,,3.240000000000,   0.34000,
,,,3.250000000000,   0.35200,
,,,3.260000000000,   0.36600,
,,,3.270000000000,   0.39000,
,,,3.280000000000,   0.35200,
,,,3.290000000000,   0.35800,
,,,3.300000000000,   0.37600,
,,,3.310000000000,   0.36600,
,,,3.320000000000,   0.34400,
,,,3.330000000000,   0.37400,
,,,3.340000000000,   0.37000,
,,,3.350000000000,   0.33200,
,,,3.360000000000,   0.35400,
,,,3.370000000000,   0.35600,
,,,3.380000000000,   0.36200,
,,,3.390000000000,   0.37000,
,,,3.400000000000,   0.42000,
,,,3.410000000000,   0.35200,
,,,3.420000000000,   0.37800,
,,,3.430000000000,   0.34200,
,,,3.440000000000,   0.38800,
,,,3.450000000000,   0.36800,
,,,3.460000000000,   0.35800,
,,,3.470000000000,   0.37400,
,,,3.480000000000,   0.36000,
,,,3.490000000000,   0.34600,
,,,3.500000000000,   0.38400,
,,,3.510000000000,   0.34600,
,,,3.520000000000,   0.35600,
,,,3.530000000000,   0.32400,
,,,3.540000000000,   0.37600,
,,,3.550000000000,   0.34400,
,,,3.560000000000,   0.36200,
,,,3.570000000000,   0.37200,
,,,3.580000000000,   0.36200,
,,,3.590000000000,   0.37200,
,,,3.600000000000,   0.34200,
,,,3.610000000000,   0.37400,
,,,3.620000000000,   0.31200,
,,,3.630000000000,   0.34400,
,,,3.640000000000,   0.34600,
,,,3.650000000000,   0.34400,
,,,3.660000000000,   0.35400,
,,,3.670000000000,   0.38400,
,,,3.680000000000,   0.32800,
,,,3.690000000000,   0.36800,
,,,3.700000000000,   0.36200,
,,,3.710000000000,   0.38200,
,,,3.720000000000,   0.36400,
,,,3.730000000000,   0.35400,
,,,3.740000000000,   0.36000,
,,,3.750000000000,   0.38400,
,,,3.760000000000,   0.37000,
,,,3.770000000000,   0.37000,
,,,3.780000000000,   0.37600,
,,,3.790000000000,   0.37200,
,,,3.800000000000,   0.37800,
,,,3.810000000000,   0.34400,
,,,3.820000000000,   0.36000,
,,,3.830000000000,   0.33000,
,,,3.840000000000,   0.36400,
,,,3.850000000000,   0.39400,
,,,3.860000000000,   0.34200,
,,,3.870000000000,   0.35200,
,,,3.880000000000,   0.35800,
,,,3.890000000000,   0.35600,
,,,3.900000000000,   0.32200,
,,,3.910000000000,   0.35400,
,,,3.920000000000,   0.38200,
,,,3.930000000000,   0.37600,
,,,3.940000000000,   0.35400,
,,,3.950000000000,   0.37200,
,,,3.960000000000,   0.36800,
,,,3.970000000000,   0.35200,
,,,3.980000000000,   0.33200,
,,,3.990000000000,   0.37000,
,,,4.000000000000,   0.35600,
,,,4.010000000000,   0.36000,
,,,4.020000000000,   0.39200,
,,,4.030000000000,   0.32200,
,,,4.040000000000,   0.39800,
,,,4.050000000000,   0.35400,
,,,4.060000000000,   0.37000,
,,,4.070000000000,   0.32400,
,,,4.080000000000,   0.37400,
,,,4.090000000000,   0.37800,
,,,4.100000000000,   0.35200,
,,,4.110000000000,   0.33000,
,,,4.120000000000,   0.36000,
,,,4.130000000000,   0.33400,
,,,4.140000000000,   0.33800,
,,,4.150000000000,   0.36400,
,,,4.160000000000,   0.33200,
,,,4.170000000000,   0.37400,
,,,4.180000000000,   0.35400,
,,,4.190000000000,   0.38000,
,,,4.200000000000,   0.32600,
,,,4.210000000000,   0.36000,
,,,4.220000000000,   0.37800,
,,,4.230000000000,   0.34600,
,,,4.240000000000,   0.39000,
,,,4.250000000000,   0.34400,
,,,4.260000000000,   0.35200,
,,,4.270000000000,   0.32200,
,,,4.280000000000,   0.35000,
,,,4.290000000000,   0.35200,
,,,4.300000000000,   0.37400,
,,,4.310000000000,   0.35800,
,,,4.320000000000,   0.35800,
,,,4.330000000000,   0.36000,
,,,4.340000000000,   0.37200,
,,,4.350000000000,   0.36200,
,,,4.360000000000,   0.38600,
,,,4.370000000000,   0.37200,
,,,4.380000000000,   0.34000,
,,,4.390000000000,   0.38600,
,,,4.400000000000,   0.35000,
,,,4.410000000000,   0.38000,
,,,4.420000000000,   0.36200,
,,,4.430000000000,   0.39000,
,,,4.440000000000,   0.37600,
,,,4.450000000000,   0.35200,
,,,4.460000000000,   0.33800,
,,,4.470000000000,   0.36400,
,,,4.480000000000,   0.35800,
,,,4.490000000000,   0.37000,
,,,4.500000000000,   0.38400,
,,,4.510000000000,   0.35200,
,,,4.520000000000,   0.34000,
,,,4.530000000000,   0.37600,
,,,4.540000000000,   0.35600,
,,,4.550000000000,   0.37400,
,,,4.560000000000,   0.36600,
,,,4.570000000000,   0.37800,
,,,4.580000000000,   0.37000,
,,,4.590000000000,   0.39000,
,,,4.600000000000,   0.35200,
,,,4.610000000000,   0.39200,
,,,4.620000000000,   0.37000,
,,,4.630000000000,   0.35200,
,,,4.640000000000,   0.37000,
,,,4.650000000000,   0.36600,
,,,4.660000000000,   0.35800,
,,,4.670000000000,   0.36400,
,,,4.680000000000,   0.34400,
,,,4.690000000000,   0.34000,
,,,4.700000000000,   0.36400,
,,,4.710000000000,   0.32200,
,,,4.720000000000,   0.38000,
,,,4.730000000000,   0.35800,
,,,4.740000000000,   0.35800,
,,,4.750000000000,   0.37200,
,,,4.760000000000,   0.36400,
,,,4.770000000000,   0.36200,
,,,4.780000000000,   0.34800,
,,,4.790000000000,   0.36600,
,,,4.800000000000,   0.36200,
,,,4.810000000000,   0.37000,
,,,4.820000000000,   0.35600,
,,,4.830000000000,   0.35400,
,,,4.840000000000,   0.30600,
,,,4.850000000000,   0.34000,
,,,4.860000000000,   0.34400,
,,,4.870000000000,   0.36000,
,,,4.880000000000,   0.34800,
,,,4.890000000000,   0.35400,
,,,4.900000000000,   0.36800,
,,,4.910000000000,   0.36400,
,,,4.920000000000,   0.32600,
,,,4.930000000000,   0.33800,
,,,4.940000000000,   0.34800,
,,,4.950000000000,   0.39600,
,,,4.960000000000,   0.33400,
,,,4.970000000000,   0.36600,
,,,4.980000000000,   0.39400,
,,,4.990000000000,   0.35200,
,,,5.000000000000,   0.36800,
,,,5.010000000000,   0.38200,
,,,5.020000000000,   0.38400,
,,,5.030000000000,   0.35000,
,,,5.040000000000,   0.34600,
,,,5.050000000000,   0.36200,
,,,5.060000000000,   0.34200,
,,,5.070000000000,   0.38600,
,,,5.080000000000,   0.33600,
,,,5.090000000000,   0.34800,
,,,5.100000000000,   0.33200,
,,,5.110000000000,   0.36000,
,,,5.120000000000,   0.35200,
,,,5.130000000000,   0.34000,
,,,5.140000000000,   0.35800,
,,,5.150000000000,   0.35600,
,,,5.160000000000,   0.35600,
,,,5.170000000000,   0.34000,
,,,5.180000000000,   0.37000,
,,,5.190000000000,   0.34400,
,,,5.200000000000,   0.37000,
,,,5.210000000000,   0.36400,
,,,5.220000000000,   0.34200,
,,,5.230000000000,   0.38200,
,,,5.240000000000,   0.35800,
,,,5.250000000000,   0.35600,
,,,5.260000000000,   0.34800,
,,,5.270000000000,   0.37000,
,,,5.280000000000,   0.36200,
,,,5.290000000000,   0.36600,
,,,5.300000000000,   0.37200,
,,,5.310000000000,   0.36000,
,,,5.320000000000,   0.35400,
,,,5.330000000000,   0.38200,
,,,5.340000000000,   0.35800,
,,,5.350000000000,   0.37200,
,,,5.360000000000,   0.34000,
,,,5.370000000000,   0.36200,
,,,5.380000000000,   0.38800,
,,,5.390000000000,   0.35200,
,,,5.400000000000,   0.35400,
,,,5.410000000000,   0.34600,
,,,5.420000000000,   0.34200,
,,,5.430000000000,   0.37800,
,,,5.440000000000,   0.34000,
,,,5.450000000000,   0.36800,
,,,5.460000000000,   0.36600,
,,,5.470000000000,   0.37400,
,,,5.480000000000,   0.36400,
,,,5.490000000000,   0.35400,
,,,5.500000000000,   0.36800,
,,,5.510000000000,   0.34400,
,,,5.520000000000,   0.35400,
,,,5.530000000000,   0.37200,
,,,5.540000000000,   0.36800,
,,,5.550000000000,   0.33600,
,,,5.560000000000,   0.34000,
,,,5.570000000000,   0.36200,
,,,5.580000000000,   0.38800,
,,,5.590000000000,   0.35000,
,,,5.600000000000,   0.35600,
,,,5.610000000000,   0.35800,
,,,5.620000000000,   0.36400,
,,,5.630000000000,   0.36400,
,,,5.640000000000,   0.34400,
,,,5.650000000000,   0.35000,
,,,5.660000000000,   0.35400,
,,,5.670000000000,   0.32800,
,,,5.680000000000,   0.37400,
,,,5.690000000000,   0.33800,
,,,5.700000000000,   0.38400,
,,,5.710000000000,   0.36800,
,,,5.720000000000,   0.34600,
,,,5.730000000000,   0.34400,
,,,5.740000000000,   0.35800,
,,,5.750000000000,   0.34600,
,,,5.760000000000,   0.33800,
,,,5.770000000000,   0.37000,
,,,5.780000000000,   0.34600,
,,,5.790000000000,   0.37200,
,,,5.800000000000,   0.36000,
,,,5.810000000000,   0.34800,
,,,5.820000000000,   0.35800,
,,,5.830000000000,   0.34400,
,,,5.840000000000,   0.36400,
,,,5.850000000000,   0.36800,
,,,5.860000000000,   0.35000,
,,,5.870000000000,   0.36400,
,,,5.880000000000,   0.34400,
,,,5.890000000000,   0.36200,
,,,5.900000000000,   0.35000,
,,,5.910000000000,   0.35800,
,,,5.920000000000,   0.36000,
,,,5.930000000000,   0.38000,
,,,5.940000000000,   0.38000,
,,,5.950000000000,   0.35200,
,,,5.960000000000,   0.34800,
,,,5.970000000000,   0.33800,
,,,5.980000000000,   0.34000,
,,,5.990000000000,   0.36200,
,,,6.000000000000,   0.35400,
,,,6.010000000000,   0.37800,
,,,6.020000000000,   0.37200,
,,,6.030000000000,   0.37400,
,,,6.040000000000,   0.35000,
,,,6.050000000000,   0.33800,
,,,6.060000000000,   0.36200,
,,,6.070000000000,   0.33400,
,,,6.080000000000,   0.34000,
,,,6.090000000000,   0.34200,
,,,6.100000000000,   0.38600,
,,,6.110000000000,   0.35400,
,,,6.120000000000,   0.36600,
,,,6.130000000000,   0.37800,
,,,6.140000000000,   0.37600,
,,,6.150000000000,   0.35000,
,,,6.160000000000,   0.36600,
,,,6.170000000000,   0.36000,
,,,6.180000000000,   0.36000,
,,,6.190000000000,   0.36200,
,,,6.200000000000,   0.34000,
,,,6.210000000000,   0.35000,
,,,6.220000000000,   0.36200,
,,,6.230000000000,   0.34600,
,,,6.240000000000,   0.34400,
,,,6.250000000000,   0.34800,
,,,6.260000000000,   0.36600,
,,,6.270000000000,   0.34800,
,,,6.280000000000,   0.36200,
,,,6.290000000000,   0.36000,
,,,6.300000000000,   0.34200,
,,,6.310000000000,   0.34600,
,,,6.320000000000,   0.36200,
,,,6.330000000000,   0.34200,
,,,6.340000000000,   0.37800,
,,,6.350000000000,   0.37000,
,,,6.360000000000,   0.36200,
,,,6.370000000000,   0.36400,
,,,6.380000000000,   0.34200,
,,,6.390000000000,   0.37200,
,,,6.400000000000,   0.35200,
,,,6.410000000000,   0.31800,
,,,6.420000000000,   0.36000,
,,,6.430000000000,   0.37000,
,,,6.440000000000,   0.34600,
,,,6.450000000000,   0.36400,
,,,6.460000000000,   0.38600,
,,,6.470000000000,   0.35800,
,,,6.480000000000,   0.31600,
,,,6.490000000000,   0.35400,
,,,6.500000000000,   0.36400,
,,,6.510000000000,   0.35800,
,,,6.520000000000,   0.36400,
,,,6.530000000000,   0.36800,
