Sample data/Loading Time/TEK0009.CSV

Record Length,2.500000e+03,,   0.000000000000,   0.48600,
Sample Interval,1.000000e-02,,   0.010000000000,   0.48600,
Trigger Point,0.000000000000e+00,,   0.020000000000,   0.45200,
,,,   0.030000000000,   0.47000,
,,,   0.040000000000,   0.49000,
,,,   0.050000000000,   0.48400,
Source,CH1,,   0.060000000000,   0.49800,
Vertical Units,V,,   0.070000000000,   0.47200,
Vertical Scale,5.000000e-02,,   0.080000000000,   0.48200,
Vertical Offset,-3.620000e-01,,   0.090000000000,   0.47600,
Horizontal Units,s,,   0.100000000000,   0.49400,
Horizontal Scale,2.500000e+00,,   0.110000000000,   0.50000,
Pt Fmt,Y,,   0.120000000000,   0.47600,
Yzero,0.000000e+00,,   0.130000000000,   0.50400,
Probe Atten,1.000000e+01,,   0.140000000000,   0.49200,
Model Number,TDS2001C,,   0.150000000000,   0.48200,
Serial Number,C012118,,   0.160000000000,   0.47600,
Firmware Version,FV:v24.15,,   0.170000000000,   0.46600,
,,,0.180000000000,   0.47000,
,,,0.190000000000,   0.46800,
,,,0.200000000000,   0.51600,
,,,0.210000000000,   0.48000,
,,,0.220000000000,   0.48200,
,,,0.230000000000,   0.48000,
,,,0.240000000000,   0.49600,
,,,0.250000000000,   0.49800,
,,,0.260000000000,   0.46000,
,,,0.270000000000,   0.48200,
,,,0.280000000000,   0.46200,
,,,0.290000000000,   0.48000,
,,,0.300000000000,   0.49000,
,,,0.310000000000,   0.47200,
,,,0.320000000000,   0.48800,
,,,0.330000000000,   0.47600,
,,,0.340000000000,   0.49400,
,,,0.350000000000,   0.47000,
,,,0.360000000000,   0.50000,
,,,0.370000000000,   0.48800,
,,,0.380000000000,   0.51000,
,,,0.390000000000,   0.52000,
,,,0.400000000000,   0.49000,
,,,0.410000000000,   0.47400,
,,,0.420000000000,   0.51200,
,,,0.430000000000,   0.47800,
,,,0.440000000000,   0.49200,
,,,0.450000000000,   0.49200,
,,,0.460000000000,   0.47400,
,,,0.470000000000,   0.46600,
,,,0.480000000000,   0.49200,
,,,0.490000000000,   0.51000,
,,,0.500000000000,   0.48200,
,,,0.510000000000,   0.50400,
,,,0.520000000000,   0.46400,
,,,0.530000000000,   0.50200,
,,,0.540000000000,   0.53000,
,,,0.550000000000,   0.49800,
,,,0.560000000000,   0.46600,
,,,0.570000000000,   0.47200,
,,,0.580000000000,   0.51800,
,,,0.590000000000,   0.53400,
,,,0.600000000000,   0.47600,
,,,0.610000000000,   0.49800,
,,,0.620000000000,   0.47600,
,,,0.630000000000,   0.51400,
,,,0.640000000000,   0.51000,
,,,0.650000000000,   0.48400,
,,,0.660000000000,   0.47800,
,,,0.670000000000,   0.49200,
,,,0.680000000000,   0.49400,
,,,0.690000000000,   0.47200,
,,,0.700000000000,   0.52000,
,,,0.710000000000,   0.51400,
,,,0.720000000000,   0.50400,
,,,0.730000000000,   0.51000,
,,,0.740000000000,   0.47200,
,,,0.750000000000,   0.49200,
,,,0.760000000000,   0.48600,
,,,0.770000000000,   0.47200,
,,,0.780000000000,   0.50600,
,,,0.790000000000,   0.47600,
,,,0.800000000000,   0.47200,
,,,0.810000000000,   0.47200,
,,,0.820000000000,   0.45800,
,,,0.830000000000,   0.44400,
,,,0.840000000000,   0.46200,
,,,0.850000000000,   0.50000,
,,,0.860000000000,   0.49000,
,,,0.870000000000,   0.45200,
,,,0.880000000000,   0.48000,
,,,0.890000000000,   0.46800,
,,,0.900000000000,   0.44800,
,,,0.910000000000,   0.47800,
,,,0.920000000000,   0.47600,
,,,0.930000000000,   0.47800,
,,,0.940000000000,   0.49800,
,,,0.950000000000,   0.51000,
,,,0.960000000000,   0.53200,
,,,0.970000000000,   0.47600,
,,,0.980000000000,   0.51800,
,,,0.990000000000,   0.46800,
,,,1.000000000000,   0.50000,
,,,1.010000000000,   0.46400,
,,,1.020000000000,   0.52200,
,,,1.030000000000,   0.46800,
,,,1.040000000000,   0.50200,
,,,1.050000000000,   0.47800,
,,,1.060000000000,   0.48200,
,,,1.070000000000,   0.46400,
,,,1.080000000000,   0.48200,
,,,1.090000000000,   0.50200,
,,,1.100000000000,   0.47800,
,,,1.110000000000,   0.48800,
,,,1.120000000000,   0.47400,
,,,1.130000000000,   0.45400,
,,,1.140000000000,   0.49200,
,,,1.150000000000,   0.46600,
,,,1.160000000000,   0.48000,
,,,1.170000000000,   0.49200,
,,,1.180000000000,   0.48200,
,,,1.190000000000,   0.49200,
,,,1.200000000000,   0.47800,
,,,1.210000000000,   0.50200,
,,,1.220000000000,   0.49800,
,,,1.230000000000,   0.50800,
,,,1.240000000000,   0.46400,
,,,1.250000000000,   0.48200,
,,,1.260000000000,   0.48400,
,,,1.270000000000,   0.49800,
,,,1.280000000000,   0.49400,
,,,1.290000000000,   0.49400,
,,,1.300000000000,   0.51000,
,,,1.310000000000,   0.48200,
,,,1.320000000000,   0.46400,
,,,1.330000000000,   0.47600,
,,,1.340000000000,   0.47400,
,,,1.350000000000,   0.50400,
,,,1.360000000000,   0.50800,
,,,1.370000000000,   0.47400,
,,,1.380000000000,   0.50800,
,,,1.390000000000,   0.46800,
,,,1.400000000000,   0.50600,
,,,1.410000000000,   0.49000,
,,,1.420000000000,   0.46000,
,,,1.430000000000,   0.49600,
,,,1.440000000000,   0.47000,
,,,1.450000000000,   0.46400,
,,,1.460000000000,   0.50800,
,,,1.470000000000,   0.49800,
,,,1.480000000000,   0.48400,
,,,1.490000000000,   0.48600,
,,,1.500000000000,   0.51200,
,,,1.510000000000,   0.46600,
,,,1.520000000000,   0.46800,
,,,1.530000000000,   0.47800,
,,,1.540000000000,   0.47600,
,,,1.550000000000,   0.45800,
,,,1.560000000000,   0.48200,
,,,1.570000000000,   0.47400,
,,,1.580000000000,   0.48200,
,,,1.590000000000,   0.53000,
,,,1.600000000000,   0.49000,
,,,1.610000000000,   0.45000,
,,,1.620000000000,   0.48400,
,,,1.630000000000,   0.46000,
,,,1.640000000000,   0.52800,
,,,1.650000000000,   0.49600,
,,,1.660000000000,   0.48600,
,,,1.670000000000,   0.49200,
,,,1.680000000000,   0.47200,
,,,1.690000000000,   0.48600,
,,,1.700000000000,   0.49200,
,,,1.710000000000,   0.50800,
,,,1.720000000000,   0.46400,
,,,1.730000000000,   0.43600,
,,,1.740000000000,   0.48600,
,,,1.750000000000,   0.49000,
,,,1.760000000000,   0.51600,
,,,1.770000000000,   0.45200,
,,,1.780000000000,   0.47800,
,,,1.790000000000,   0.46600,
,,,1.800000000000,   0.49000,
,,,1.810000000000,   0.52200,
,,,1.820000000000,   0.48200,
,,,1.830000000000,   0.49000,
,,,1.840000000000,   0.50400,
,,,1.850000000000,   0.47800,
,,,1.860000000000,   0.52000,
,,,1.870000000000,   0.51000,
,,,1.880000000000,   0.50600,
,,,1.890000000000,   0.48200,
,,,1.900000000000,   0.47400,
,,,1.910000000000,   0.50800,
,,,1.920000000000,   0.47600,
,,,1.930000000000,   0.49600,
,,,1.940000000000,   0.48800,
,,,1.950000000000,   0.49000,
,,,1.960000000000,   0.48200,
,,,1.970000000000,   0.47800,
,,,1.980000000000,   0.47600,
,,,1.990000000000,   0.49200,
,,,2.000000000000,   0.47800,
,,,2.010000000000,   0.48000,
,,,2.020000000000,   0.48000,
,,,2.030000000000,   0.48400,
,,,2.040000000000,   0.47600,
,,,2.050000000000,   0.48800,
,,,2.060000000000,   0.48800,
,,,2.070000000000,   0.46600,
,,,2.080000000000,   0.49800,
,,,2.090000000000,   0.48200,
,,,2.100000000000,   0.48200,
,,,2.110000000000,   0.49400,
,,,2.120000000000,   0.47800,
,,,2.130000000000,   0.47400,
,,,2.140000000000,   0.49200,
,,,2.150000000000,   0.52800,
,,,2.160000000000,   0.49200,
,,,2.170000000000,   0.49400,
,,,2.180000000000,   0.46400,
,,,2.190000000000,   0.49400,
,,,2.200000000000,   0.53200,
,,,2.210000000000,   0.49800,
,,,2.220000000000,   0.46400,
,,,2.230000000000,   0.48400,
,,,2.240000000000,   0.49000,
,,,2.250000000000,   0.50800,
,,,2.260000000000,   0.50000,
,,,2.270000000000,   0.50200,
,,,2.280000000000,   0.49800,
,,,2.290000000000,   0.45200,
,,,2.300000000000,   0.48800,
,,,2.310000000000,   0.48600,
,,,2.320000000000,   0.44600,
,,,2.330000000000,   0.50400,
,,,2.340000000000,   0.49800,
,,,2.350000000000,   0.50400,
,,,2.360000000000,   0.47000,
,,,2.370000000000,   0.48400,
,,,2.380000000000,   0.48200,
,,,2.390000000000,   0.48800,
,,,2.400000000000,   0.51000,
,,,2.410000000000,   0.48600,
,,,2.420000000000,   0.46400,
,,,2.430000000000,   0.48800,
,,,2.440000000000,   0.47600,
,,,2.450000000000,   0.47600,
,,,2.460000000000,   0.51600,
,,,2.470000000000,   0.48200,
,,,2.480000000000,   0.45400,
,,,2.490000000000,   0.52200,
,,,2.500000000000,   0.49800,
,,,2.510000000000,   0.46800,
,,,2.520000000000,   0.48800,
,,,2.530000000000,   0.48000,
,,,2.540000000000,   0.52200,
,,,2.550000000000,   0.47600,
,,,2.560000000000,   0.47400,
,,,2.570000000000,   0.45800,
,,,2.580000000000,   0.47600,
,,,2.590000000000,   0.50400,
,,,2.600000000000,   0.47800,
,,,2.610000000000,   0.47000,
,,,2.620000000000,   0.48200,
,,,2.630000000000,   0.51600,
,,,2.640000000000,   0.51600,
,,,2.650000000000,   0.45200,
,,,2.660000000000,   0.50000,
,,,2.670000000000,   0.47800,
,,,2.680000000000,   0.47000,
,,,2.690000000000,   0.49400,
,,,2.700000000000,   0.48200,
,,,2.710000000000,   0.50000,
,,,2.720000000000,   0.45800,
,,,2.730000000000,   0.44600,
,,,2.740000000000,   0.51000,
,,,2.750000000000,   0.44200,
,,,2.760000000000,   0.46800,
,,,2.770000000000,   0.46600,
,,,2.780000000000,   0.47600,
,,,2.790000000000,   0.50000,
,,,2.800000000000,   0.47000,
,,,2.810000000000,   0.49600,
,,,2.820000000000,   0.47600,
,,,2.830000000000,   0.47800,
,,,2.840000000000,   0.49600,
,,,2.850000000000,   0.48200,
,,,2.860000000000,   0.48200,
,,,2.870000000000,   0.51000,
,,,2.880000000000,   0.47800,
,,,2.890000000000,   0.49200,
,,,2.900000000000,   0.48800,
,,,2.910000000000,   0.51600,
,,,2.920000000000,   0.51800,
,,,2.930000000000,   0.46400,
,,,2.940000000000,   0.47600,
,,,2.950000000000,   0.48800,
,,,2.960000000000,   0.49200,
,,,2.970000000000,   0.51000,
,,,2.980000000000,   0.48800,
,,,2.990000000000,   0.47400,
,,,3.000000000000,   0.46600,
,,,3.010000000000,   0.49800,
,,,3.020000000000,   0.48000,
,,,3.030000000000,   0.50800,
,,,3.040000000000,   0.51600,
,,,3.050000000000,   0.48800,
,,,3.060000000000,   0.48800,
,,,3.070000000000,   0.50200,
,,,3.080000000000,   0.47400,
,,,3.090000000000,   0.49200,
,,,3.100000000000,   0.49400,
,,,3.110000000000,   0.48200,
,,,3.120000000000,   0.46400,
,,,3.130000000000,   0.46000,
,,,3.140000000000,   0.48600,
,,,3.150000000000,   0.45600,
,,,3.160000000000,   0.48600,
,,,3.170000000000,   0.48200,
,,,3.180000000000,   0.45200,
,,,3.190000000000,   0.51000,
,,,3.200000000000,   0.48400,
,,,3.210000000000,   0.48000,
,,,3.220000000000,   0.46800,
,,,3.230000000000,   0.50600,
,,,3.240000000000,   0.47600,
,,,3.250000000000,   0.51400,
,,,3.260000000000,   0.50400,
,,,3.270000000000,   0.49600,
,,,3.280000000000,   0.51000,
,,,3.290000000000,   0.47400,
,,,3.300000000000,   0.46800,
,,,3.310000000000,   0.50600,
,,,3.320000000000,   0.48600,
,,,3.330000000000,   0.48400,
,,,3.340000000000,   0.49200,
,,,3.350000000000,   0.49400,
,,,3.360000000000,   0.48400,
,,,3.370000000000,   0.48000,
,,,3.380000000000,   0.47600,
,,,3.390000000000,   0.49400,
,,,3.400000000000,   0.47200,
,,,3.410000000000,   0.48200,
,,,3.420000000000,   0.47200,
,,,3.430000000000,   0.51200,
,,,3.440000000000,   0.48400,
,,,3.450000000000,   0.48000,
,,,3.460000000000,   0.47600,
,,,3.470000000000,   0.50400,
,,,3.480000000000,   0.50000,
,,,3.490000000000,   0.45200,
,,,3.500000000000,   0.47800,
,,,3.510000000000,   0.46000,
,,,3.520000000000,   0.49000,
,,,3.530000000000,   0.48200,
,,,3.540000000000,   0.47200,
,,,3.550000000000,   0.47600,
,,,3.560000000000,   0.46800,
,,,3.570000000000,   0.45800,
,,,3.580000000000,   0.50200,
,,,3.590000000000,   0.49400,
,,,3.600000000000,   0.50200,
,,,3.610000000000,   0.46000,
,,,3.620000000000,   0.46200,
,,,3.630000000000,   0.47400,
,,,3.640000000000,   0.49200,
,,,3.650000000000,   0.49000,
,,,3.660000000000,   0.46000,
,,,3.670000000000,   0.51000,
,,,3.680000000000,   0.49400,
,,,3.690000000000,   0.49000,
,,,3.700000000000,   0.48000,
,,,3.710000000000,   0.51600,
,,,3.720000000000,   0.48200,
,,,3.730000000000,   0.48000,
,,,3.740000000000,   0.49600,
,,,3.750000000000,   0.50200,
,,,3.760000000000,   0.49800,
,,,3.770000000000,   0.50400,
,,,3.780000000000,   0.44600,
,,,3.790000000000,   0.46400,
,,,3.800000000000,   0.47600,
,,,3.810000000000,   0.48800,
,,,3.820000000000,   0.46800,
,,,3.830000000000,   0.46800,
,,,3.840000000000,   0.45400,
,,,3.850000000000,   0.50600,
,,,3.860000000000,   0.52000,
,,,3.870000000000,   0.45600,
,,,3.880000000000,   0.50800,
,,,3.890000000000,   0.47600,
,,,3.900000000000,   0.52200,
,,,3.910000000000,   0.47600,
,,,3.920000000000,   0.48800,
,,,3.930000000000,   0.49200,
,,,3.940000000000,   0.47400,
,,,3.950000000000,   0.45600,
,,,3.960000000000,   0.49200,
,,,3.970000000000,   0.47400,
,,,3.980000000000,   0.48400,
,,,3.990000000000,   0.49800,
,,,4.000000000000,   0.49800,
,,,4.010000000000,   0.49400,
,,,4.020000000000,   0.48200,
,,,4.030000000000,   0.47600,
,,,4.040000000000,   0.51400,
,,,4.050000000000,   0.49800,
,,,4.060000000000,   0.50600,
,,,4.070000000000,   0.49800,
,,,4.080000000000,   0.48800,
,,,4.090000000000,   0.47200,
,,,4.100000000000,   0.49400,
,,,4.110000000000,   0.49600,
,,,4.120000000000,   0.46000,
,,,4.130000000000,   0.49600,
,,,4.140000000000,   0.47000,
,,,4.150000000000,   0.49400,
,,,4.160000000000,   0.48800,
,,,4.170000000000,   0.47400,
,,,4.180000000000,   0.45400,
,,,4.190000000000,   0.48800,
,,,4.200000000000,   0.46600,
,,,4.210000000000,   0.48200,
,,,4.220000000000,   0.45200,
,,,4.230000000000,   0.48800,
,,,4.240000000000,   0.46400,
,,,4.250000000000,   0.49800,
,,,4.260000000000,   0.45000,
,,,4.270000000000,   0.44000,
,,,4.280000000000,   0.50800,
,,,4.290000000000,   0.49800,
,,,4.300000000000,   0.48600,
,,,4.310000000000,   0.50400,
,,,4.320000000000,   0.51400,
,,,4.330000000000,   0.47200,
,,,4.340000000000,   0.49000,
,,,4.350000000000,   0.48800,
,,,4.360000000000,   0.50000,
,,,4.370000000000,   0.48200,
,,,4.380000000000,   0.49200,
,,,4.390000000000,   0.46400,
,,,4.400000000000,   0.49800,
,,,4.410000000000,   0.49400,
,,,4.420000000000,   0.49800,
,,,4.430000000000,   0.49200,
,,,4.440000000000,   0.47200,
,,,4.450000000000,   0.47800,
,,,4.460000000000,   0.47600,
,,,4.470000000000,   0.47600,
,,,4.480000000000,   0.48400,
,,,4.490000000000,   0.46400,
,,,4.500000000000,   0.47000,
,,,4.510000000000,   0.46400,
,,,4.520000000000,   0.44600,
,,,4.530000000000,   0.47000,
,,,4.540000000000,   0.45800,
,,,4.550000000000,   0.49000,
,,,4.560000000000,   0.45200,
,,,4.570000000000,   0.45400,
,,,4.580000000000,   0.42400,
,,,4.590000000000,   0.38000,
,,,4.600000000000,   0.36800,
,,,4.610000000000,   0.33800,
,,,4.620000000000,   0.30600,
,,,4.630000000000,   0.30600,
,,,4.640000000000,   0.29200,
,,,4.650000000000,   0.31800,
,,,4.660000000000,   0.27000,
,,,4.670000000000,   0.30400,
,,,4.680000000000,   0.26600,
,,,4.690000000000,   0.27000,
,,,4.700000000000,   0.28600,
,,,4.710000000000,   0.27800,
,,,4.720000000000,   0.29600,
,,,4.730000000000,   0.28800,
,,,4.740000000000,   0.29200,
,,,4.750000000000,   0.26800,
,,,4.760000000000,   0.27200,
,,,4.770000000000,   0.27000,
,,,4.780000000000,   0.29400,
,,,4.790000000000,   0.28800,
,,,4.800000000000,   0.29600,
,,,4.810000000000,   0.29200,
,,,4.820000000000,   0.28800,
,,,4.830000000000,   0.29400,
,,,4.840000000000,   0.28400,
,,,4.850000000000,   0.27200,
,,,4.860000000000,   0.27400,
,,,4.870000000000,   0.32800,
,,,4.880000000000,   0.26800,
,,,4.890000000000,   0.26600,
,,,4.900000000000,   0.28400,
,,,4.910000000000,   0.28800,
,,,4.920000000000,   0.32400,
,,,4.930000000000,   0.29200,
,,,4.940000000000,   0.27200,
,,,4.950000000000,   0.29400,
,,,4.960000000000,   0.28600,
,,,4.970000000000,   0.28000,
,,,4.980000000000,   0.28600,
,,,4.990000000000,   0.27800,
,,,5.000000000000,   0.26400,
,,,5.010000000000,   0.29800,
,,,5.020000000000,   0.28200,
,,,5.030000000000,   0.30000,
,,,5.040000000000,   0.31000,
,,,5.050000000000,   0.28600,
,,,5.060000000000,   0.31600,
,,,5.070000000000,   0.29600,
,,,5.080000000000,   0.28600,
,,,5.090000000000,   0.29000,
,,,5.100000000000,   0.29200,
,,,5.110000000000,   0.28400,
,,,5.120000000000,   0.30200,
,,,5.130000000000,   0.28400,
,,,5.140000000000,   0.26400,
,,,5.150000000000,   0.27200,
,,,5.160000000000,   0.29000,
,,,5.170000000000,   0.28000,
,,,5.180000000000,   0.25400,
,,,5.190000000000,   0.28600,
,,,5.200000000000,   0.24600,
,,,5.210000000000,   0.27000,
,,,5.220000000000,   0.28800,
,,,5.230000000000,   0.28800,
,,,5.240000000000,   0.31400,
,,,5.250000000000,   0.28600,
,,,5.260000000000,   0.26800,
,,,5.270000000000,   0.29200,
,,,5.280000000000,   0.28400,
,,,5.290000000000,   0.26400,
,,,5.300000000000,   0.29400,
,,,5.310000000000,   0.26400,
,,,5.320000000000,   0.28000,
,,,5.330000000000,   0.28600,
,,,5.340000000000,   0.25000,
,,,5.350000000000,   0.26000,
,,,5.360000000000,   0.29800,
,,,5.370000000000,   0.31800,
,,,5.380000000000,   0.30000,
,,,5.390000000000,   0.29400,
,,,5.400000000000,   0.32200,
,,,5.410000000000,   0.28200,
,,,5.420000000000,   0.28800,
,,,5.430000000000,   0.30000,
,,,5.440000000000,   0.28200,
,,,5.450000000000,   0.30800,
,,,5.460000000000,   0.29600,
,,,5.470000000000,   0.29200,
,,,5.480000000000,   0.24000,
,,,5.490000000000,   0.30400,
,,,5.500000000000,   0.29000,
,,,5.510000000000,   0.29200,
,,,5.520000000000,   0.27200,
,,,5.530000000000,   0.30000,
,,,5.540000000000,   0.30000,
,,,5.550000000000,   0.27200,
,,,5.560000000000,   0.28200,
,,,5.570000000000,   0.30000,
,,,5.580000000000,   0.31800,
,,,5.590000000000,   0.27000,
,,,5.600000000000,   0.27400,
,,,5.610000000000,   0.25800,
,,,5.620000000000,   0.30800,
,,,5.630000000000,   0.29200,
,,,5.640000000000,   0.29600,
,,,5.650000000000,   0.28000,
,,,5.660000000000,   0.26800,
,,,5.670000000000,   0.24600,
,,,5.680000000000,   0.25800,
,,,5.690000000000,   0.28200,
,,,5.700000000000,   0.28600,
,,,5.710000000000,   0.27600,
,,,5.720000000000,   0.29800,
,,,5.730000000000,   0.29400,
,,,5.740000000000,   0.28400,
,,,5.750000000000,   0.30200,
,,,5.760000000000,   0.29400,
,,,5.770000000000,   0.28000,
,,,5.780000000000,   0.28200,
,,,5.790000000000,   0.26400,
,,,5.800000000000,   0.30200,
,,,5.810000000000,   0.25800,
,,,5.820000000000,   0.28400,
,,,5.830000000000,   0.28200,
,,,5.840000000000,   0.25800,
,,,5.850000000000,   0.28200,
,,,5.860000000000,   0.25800,
,,,5.870000000000,   0.27000,
,,,5.880000000000,   0.29000,
,,,5.890000000000,   0.28600,
,,,5.900000000000,   0.27000,
,,,5.910000000000,   0.26400,
,,,5.920000000000,   0.28200,
,,,5.930000000000,   0.24800,
,,,5.940000000000,   0.23800,
,,,5.950000000000,   0.25000,
,,,5.960000000000,   0.27600,
,,,5.970000000000,   0.25800,
,,,5.980000000000,   0.28200,
,,,5.990000000000,   0.28400,
,,,6.000000000000,   0.28000,
,,,6.010000000000,   0.29400,
,,,6.020000000000,   0.27600,
,,,6.030000000000,   0.25600,
,,,6.040000000000,   0.24400,
,,,6.050000000000,   0.27600,
,,,6.060000000000,   0.26400,
,,,6.070000000000,   0.26400,
,,,6.080000000000,   0.25800,
,,,6.090000000000,   0.28600,
,,,6.100000000000,   0.26800,
,,,6.110000000000,   0.27000,
,,,6.120000000000,   0.29000,
,,,6.130000000000,   0.27400,
,,,6.140000000000,   0.25400,
,,,6.150000000000,   0.25600,
,,,6.160000000000,   0.27200,
,,,6.170000000000,   0.27000,
,,,6.180000000000,   0.27200,
,,,6.190000000000,   0.25000,
,,,6.200000000000,   0.27000,
,,,6.210000000000,   0.24800,
,,,6.220000000000,   0.29400,
,,,6.230000000000,   0.27000,
,,,6.240000000000,   0.26200,
,,,6.250000000000,   0.27400,
,,,6.260000000000,   0.28200,
,,,6.270000000000,   0.27200,
,,,6.280000000000,   0.24600,
,,,6.290000000000,   0.26600,
,,,6.300000000000,   0.25800,
,,,6.310000000000,   0.25400,
,,,6.320000000000,   0.28600,
,,,6.330000000000,   0.25800,
,,,6.340000000000,   0.27000,
,,,6.350000000000,   0.27200,
,,,6.360000000000,   0.25600,
,,,6.370000000000,   0.28200,
,,,6.380000000000,   0.32000,
,,,6.390000000000,   0.27600,
,,,6.400000000000,   0.27600,
,,,6.410000000000,   0.24200,
,,,6.420000000000,   0.29600,
,,,6.430000000000,   0.30000,
,,,6.440000000000,   0.23600,
,,,6.450000000000,   0.28600,
,,,6.460000000000,   0.29400,
,,,6.470000000000,   0.29000,
,,,6.480000000000,   0.28400,
,,,6.490000000000,   0.28400,
,,,6.500000000000,   0.27600,
,,,6.510000000000,   0.29400,
,,,6.520000000000,   0.24600,
,,,6.530000000000,   0.28400,
